maquinasEstado/moore/simulation/qsim/divideby3FSM.msim.vcd
$comment
	File created using the following command:
		vcd file divideby3FSM.msim.vcd -direction
$end
$date
	Thu May 05 11:50:35 2022
$end
$version
	ModelSim Version 2020.1
$end
$timescale
	1ps
$end

$scope module divideby3FSM_vlg_vec_tst $end
$var reg 1 ! clk $end
$var reg 1 " reset $end
$var wire 1 # y $end

$scope module i1 $end
$var wire 1 $ gnd $end
$var wire 1 % vcc $end
$var wire 1 & unknown $end
$var tri1 1 ' devclrn $end
$var tri1 1 ( devpor $end
$var tri1 1 ) devoe $end
$var wire 1 * y~output_o $end
$var wire 1 + clk~input_o $end
$var wire 1 , reset~input_o $end
$var wire 1 - state~9_combout $end
$var wire 1 . state.01~q $end
$var wire 1 / state~8_combout $end
$var wire 1 0 state.10~q $end
$var wire 1 1 state~7_combout $end
$var wire 1 2 state.00~q $end
$upscope $end
$upscope $end
$enddefinitions $end
#0
$dumpvars
0!
1"
1#
0$
1%
x&
1'
1(
1)
1*
0+
1,
0-
0.
0/
00
01
02
$end
#10000
1!
1+
#20000
0!
0+
#30000
1!
1+
#40000
0!
0+
#50000
1!
1+
#60000
0!
0+
#70000
1!
1+
#80000
0!
0+
#90000
1!
1+
#100000
0"
0!
0,
0+
11
1-
#110000
1!
1+
12
1.
0*
0#
1/
0-
#120000
0!
0+
#130000
1!
1+
10
0.
0/
01
#140000
0!
0+
#150000
1!
1+
02
00
1*
1#
11
1-
#160000
0!
0+
#170000
1!
1+
12
1.
0*
0#
1/
0-
#180000
0!
0+
#190000
1!
1+
10
0.
0/
01
#200000
0!
0+
#210000
1!
1+
02
00
1*
1#
11
1-
#220000
0!
0+
#230000
1!
1+
12
1.
0*
0#
1/
0-
#240000
0!
0+
#250000
1!
1+
10
0.
0/
01
#260000
0!
0+
#270000
1!
1+
02
00
1*
1#
11
1-
#280000
0!
0+
#290000
1!
1+
12
1.
0*
0#
1/
0-
#300000
0!
0+
#310000
1!
1+
10
0.
0/
01
#320000
0!
0+
#330000
1!
1+
02
00
1*
1#
11
1-
#340000
0!
0+
#350000
1!
1+
12
1.
0*
0#
1/
0-
#360000
0!
0+
#370000
1!
1+
10
0.
0/
01
#380000
0!
0+
#390000
1!
1+
02
00
1*
1#
11
1-
#400000
0!
0+
#410000
1!
1+
12
1.
0*
0#
1/
0-
#420000
0!
0+
#430000
1!
1+
10
0.
0/
01
#440000
0!
0+
#450000
1!
1+
02
00
1*
1#
11
1-
#460000
0!
0+
#470000
1!
1+
12
1.
0*
0#
1/
0-
#480000
0!
0+
#490000
1!
1+
10
0.
0/
01
#500000
0!
0+
#510000
1!
1+
02
00
1*
1#
11
1-
#520000
0!
0+
#530000
1!
1+
12
1.
0*
0#
1/
0-
#540000
0!
0+
#550000
1!
1+
10
0.
0/
01
#560000
0!
0+
#570000
1!
1+
02
00
1*
1#
11
1-
#580000
0!
0+
#590000
1!
1+
12
1.
0*
0#
1/
0-
#600000
0!
0+
#610000
1!
1+
10
0.
0/
01
#620000
0!
0+
#630000
1!
1+
02
00
1*
1#
11
1-
#640000
0!
0+
#650000
1!
1+
12
1.
0*
0#
1/
0-
#660000
0!
0+
#670000
1!
1+
10
0.
0/
01
#680000
0!
0+
#690000
1!
1+
02
00
1*
1#
11
1-
#700000
0!
0+
#710000
1!
1+
12
1.
0*
0#
1/
0-
#720000
0!
0+
#730000
1!
1+
10
0.
0/
01
#740000
0!
0+
#750000
1!
1+
02
00
1*
1#
11
1-
#760000
0!
0+
#770000
1!
1+
12
1.
0*
0#
1/
0-
#780000
0!
0+
#790000
1!
1+
10
0.
0/
01
#800000
0!
0+
#810000
1!
1+
02
00
1*
1#
11
1-
#820000
0!
0+
#830000
1!
1+
12
1.
0*
0#
1/
0-
#840000
0!
0+
#850000
1!
1+
10
0.
0/
01
#860000
0!
0+
#870000
1!
1+
02
00
1*
1#
11
1-
#880000
0!
0+
#890000
1!
1+
12
1.
0*
0#
1/
0-
#900000
0!
0+
#910000
1!
1+
10
0.
0/
01
#920000
0!
0+
#930000
1!
1+
02
00
1*
1#
11
1-
#940000
0!
0+
#950000
1!
1+
12
1.
0*
0#
1/
0-
#960000
0!
0+
#970000
1!
1+
10
0.
0/
01
#980000
0!
0+
#990000
1!
1+
02
00
1*
1#
11
1-
