flop/simulation/qsim/flop.msim.vcd
$comment
	File created using the following command:
		vcd file flop.msim.vcd -direction
$end
$date
	Thu Apr 07 11:20:46 2022
$end
$version
	ModelSim Version 2020.1
$end
$timescale
	1ps
$end

$scope module flop_vlg_vec_tst $end
$var reg 1 ! clk $end
$var reg 4 " d [3:0] $end
$var wire 1 # q [3] $end
$var wire 1 $ q [2] $end
$var wire 1 % q [1] $end
$var wire 1 & q [0] $end

$scope module i1 $end
$var wire 1 ' gnd $end
$var wire 1 ( vcc $end
$var wire 1 ) unknown $end
$var tri1 1 * devclrn $end
$var tri1 1 + devpor $end
$var tri1 1 , devoe $end
$var wire 1 - q[0]~output_o $end
$var wire 1 . q[1]~output_o $end
$var wire 1 / q[2]~output_o $end
$var wire 1 0 q[3]~output_o $end
$var wire 1 1 clk~input_o $end
$var wire 1 2 d[0]~input_o $end
$var wire 1 3 q[0]~reg0_q $end
$var wire 1 4 d[1]~input_o $end
$var wire 1 5 q[1]~reg0_q $end
$var wire 1 6 d[2]~input_o $end
$var wire 1 7 q[2]~reg0_q $end
$var wire 1 8 d[3]~input_o $end
$var wire 1 9 q[3]~reg0_q $end
$upscope $end
$upscope $end
$enddefinitions $end
#0
$dumpvars
0!
b1010 "
0&
0%
0$
0#
0'
1(
x)
1*
1+
1,
0-
0.
0/
00
01
02
03
14
05
06
07
18
09
$end
#25000
1!
11
#50000
b10 "
b110 "
b100 "
0!
01
04
16
08
15
19
10
1.
1%
1#
#75000
1!
11
#100000
b1100 "
b1110 "
0!
01
14
18
05
17
09
00
1/
0.
0%
1$
0#
#125000
1!
11
#150000
b1111 "
b1101 "
0!
01
12
04
15
19
10
1.
1%
1#
#175000
1!
11
#200000
b101 "
b111 "
0!
01
14
08
13
05
0.
1-
1&
0%
#225000
1!
11
#250000
b11 "
b10 "
b0 "
0!
01
02
04
06
15
09
00
1.
1%
0#
#275000
1!
11
#300000
b1 "
0!
01
12
03
05
07
0/
0.
0-
0&
0%
0$
#325000
1!
11
#350000
b11 "
b10 "
0!
01
02
14
13
1-
1&
#375000
1!
11
#400000
b0 "
b1 "
0!
01
12
04
03
15
1.
0-
0&
1%
#425000
1!
11
#450000
b11 "
b10 "
0!
01
02
14
13
05
0.
1-
1&
0%
#475000
1!
11
#500000
b1010 "
b1000 "
b1001 "
0!
01
12
04
18
03
15
1.
0-
0&
1%
#525000
1!
11
#550000
b1000 "
0!
01
02
13
05
19
10
0.
1-
1&
0%
1#
#575000
1!
11
#600000
b1100 "
0!
01
16
03
0-
0&
#625000
1!
11
#650000
b1101 "
b1001 "
0!
01
12
06
17
1/
1$
#675000
1!
11
#700000
b1011 "
0!
01
14
13
07
0/
1-
1&
0$
#725000
1!
11
#750000
b1010 "
b1000 "
0!
01
02
04
15
1.
1%
#775000
1!
11
#800000
b0 "
b10 "
0!
01
14
08
03
05
0.
0-
0&
0%
#825000
1!
11
#850000
b110 "
0!
01
16
15
09
00
1.
1%
0#
#875000
1!
11
#900000
b1110 "
0!
01
18
17
1/
1$
#925000
1!
11
#950000
b1100 "
b100 "
0!
01
04
08
19
10
1#
#975000
1!
11
