divisordeFrecuencia/simulation/qsim/divclk2.msim.vcd
$comment
	File created using the following command:
		vcd file divclk2.msim.vcd -direction
$end
$date
	Wed Apr 20 11:53:14 2022
$end
$version
	ModelSim Version 2020.1
$end
$timescale
	1ps
$end

$scope module divclk2_vlg_vec_tst $end
$var reg 1 ! clk $end
$var reg 1 " reset $end
$var wire 1 # clk2 $end

$scope module i1 $end
$var wire 1 $ gnd $end
$var wire 1 % vcc $end
$var wire 1 & unknown $end
$var tri1 1 ' devclrn $end
$var tri1 1 ( devpor $end
$var tri1 1 ) devoe $end
$var wire 1 * clk2~output_o $end
$var wire 1 + clk~input_o $end
$var wire 1 , reset~input_o $end
$var wire 1 - clk2~0_combout $end
$var wire 1 . clk2~reg0_q $end
$upscope $end
$upscope $end
$enddefinitions $end
#0
$dumpvars
0!
1"
0#
0$
1%
x&
1'
1(
1)
0*
0+
1,
0-
0.
$end
#25000
1!
1+
#50000
0!
0+
#75000
1!
1+
#100000
0"
0!
0,
0+
1-
#125000
1!
1+
1.
1*
1#
0-
#150000
0!
0+
#175000
1!
1+
0.
0*
0#
1-
#200000
0!
0+
#225000
1!
1+
1.
1*
1#
0-
#250000
0!
0+
#275000
1!
1+
0.
0*
0#
1-
#300000
0!
0+
#325000
1!
1+
1.
1*
1#
0-
#350000
0!
0+
#375000
1!
1+
0.
0*
0#
1-
#400000
0!
0+
#425000
1!
1+
1.
1*
1#
0-
#450000
0!
0+
#475000
1!
1+
0.
0*
0#
1-
#500000
0!
0+
#525000
1!
1+
1.
1*
1#
0-
#550000
0!
0+
#575000
1!
1+
0.
0*
0#
1-
#600000
0!
0+
#625000
1!
1+
1.
1*
1#
0-
#650000
0!
0+
#675000
1!
1+
0.
0*
0#
1-
#700000
0!
0+
#725000
1!
1+
1.
1*
1#
0-
#750000
0!
0+
#775000
1!
1+
0.
0*
0#
1-
#800000
0!
0+
#825000
1!
1+
1.
1*
1#
0-
#850000
0!
0+
#875000
1!
1+
0.
0*
0#
1-
#900000
0!
0+
#925000
1!
1+
1.
1*
1#
0-
#950000
0!
0+
#975000
1!
1+
0.
0*
0#
1-
