mux2/simulation/qsim/mux2.msim.vcd
$comment
	File created using the following command:
		vcd file mux2.msim.vcd -direction
$end
$date
	Fri Mar 25 11:47:17 2022
$end
$version
	ModelSim Version 2020.1
$end
$timescale
	1ps
$end

$scope module mux2_vlg_vec_tst $end
$var reg 4 ! d0 [3:0] $end
$var reg 4 " d1 [3:0] $end
$var reg 1 # s $end
$var wire 1 $ y [3] $end
$var wire 1 % y [2] $end
$var wire 1 & y [1] $end
$var wire 1 ' y [0] $end

$scope module i1 $end
$var wire 1 ( gnd $end
$var wire 1 ) vcc $end
$var wire 1 * unknown $end
$var tri1 1 + devclrn $end
$var tri1 1 , devpor $end
$var tri1 1 - devoe $end
$var wire 1 . ~QUARTUS_CREATED_GND~I_combout $end
$var wire 1 / d1[0]~input_o $end
$var wire 1 0 s~input_o $end
$var wire 1 1 d0[0]~input_o $end
$var wire 1 2 y~0_combout $end
$var wire 1 3 d1[1]~input_o $end
$var wire 1 4 d0[1]~input_o $end
$var wire 1 5 y~1_combout $end
$var wire 1 6 d1[2]~input_o $end
$var wire 1 7 d0[2]~input_o $end
$var wire 1 8 y~2_combout $end
$var wire 1 9 d0[3]~input_o $end
$var wire 1 : d1[3]~input_o $end
$var wire 1 ; y~3_combout $end
$upscope $end
$upscope $end
$enddefinitions $end
#0
$dumpvars
b1010 !
b101 "
1#
1'
0&
1%
0$
0(
1)
x*
1+
1,
1-
0.
1/
10
01
12
03
14
05
16
07
18
19
0:
0;
$end
#2140
0#
00
1;
08
15
02
0'
1&
0%
1$
#6407
1#
10
0;
18
05
12
1'
0&
1%
0$
#8806
0#
00
1;
08
15
02
0'
1&
0%
1$
#13073
1#
10
0;
18
05
12
1'
0&
1%
0$
#15472
0#
00
1;
08
15
02
0'
1&
0%
1$
#19739
1#
10
0;
18
05
12
1'
0&
1%
0$
#25071
0#
00
1;
08
15
02
0'
1&
0%
1$
#29871
1#
10
0;
18
05
12
1'
0&
1%
0$
#30000
0#
00
1;
08
15
02
0'
1&
0%
1$
#32923
1#
10
0;
18
05
12
1'
0&
1%
0$
#34873
0#
00
1;
08
15
02
0'
1&
0%
1$
#37923
1#
10
0;
18
05
12
1'
0&
1%
0$
#39873
0#
00
1;
08
15
02
0'
1&
0%
1$
#42997
1#
10
0;
18
05
12
1'
0&
1%
0$
#44497
0#
00
1;
08
15
02
0'
1&
0%
1$
#47997
1#
10
0;
18
05
12
1'
0&
1%
0$
#49497
0#
00
1;
08
15
02
0'
1&
0%
1$
#59367
1#
10
0;
18
05
12
1'
0&
1%
0$
#67167
0#
00
1;
08
15
02
0'
1&
0%
1$
#70000
1#
10
0;
18
05
12
1'
0&
1%
0$
#72499
0#
00
1;
08
15
02
0'
1&
0%
1$
#77899
1#
10
0;
18
05
12
1'
0&
1%
0$
#80731
0#
00
1;
08
15
02
0'
1&
0%
1$
#90531
1#
10
0;
18
05
12
1'
0&
1%
0$
#106645
0#
00
1;
08
15
02
0'
1&
0%
1$
#119845
1#
10
0;
18
05
12
1'
0&
1%
0$
#120000
0#
00
1;
08
15
02
0'
1&
0%
1$
#121768
1#
10
0;
18
05
12
1'
0&
1%
0$
#125234
0#
00
1;
08
15
02
0'
1&
0%
1$
#128434
1#
10
0;
18
05
12
1'
0&
1%
0$
#131900
0#
00
1;
08
15
02
0'
1&
0%
1$
#135100
1#
10
0;
18
05
12
1'
0&
1%
0$
#138566
0#
00
1;
08
15
02
0'
1&
0%
1$
#140000
1#
10
0;
18
05
12
1'
0&
1%
0$
#141466
0#
00
1;
08
15
02
0'
1&
0%
1$
#152266
1#
10
0;
18
05
12
1'
0&
1%
0$
#160000
0#
00
1;
08
15
02
0'
1&
0%
1$
#161850
1#
10
0;
18
05
12
1'
0&
1%
0$
#166350
0#
00
1;
08
15
02
0'
1&
0%
1$
#171850
1#
10
0;
18
05
12
1'
0&
1%
0$
#176350
0#
00
1;
08
15
02
0'
1&
0%
1$
#183119
1#
10
0;
18
05
12
1'
0&
1%
0$
#186185
0#
00
1;
08
15
02
0'
1&
0%
1$
#189785
1#
10
0;
18
05
12
1'
0&
1%
0$
#192851
0#
00
1;
08
15
02
0'
1&
0%
1$
#196451
1#
10
0;
18
05
12
1'
0&
1%
0$
#199517
0#
00
1;
08
15
02
0'
1&
0%
1$
#202614
1#
10
0;
18
05
12
1'
0&
1%
0$
#205880
0#
00
1;
08
15
02
0'
1&
0%
1$
#209280
1#
10
0;
18
05
12
1'
0&
1%
0$
#212546
0#
00
1;
08
15
02
0'
1&
0%
1$
#215946
1#
10
0;
18
05
12
1'
0&
1%
0$
#219212
0#
00
1;
08
15
02
0'
1&
0%
1$
#220000
1#
10
0;
18
05
12
1'
0&
1%
0$
#221766
0#
00
1;
08
15
02
0'
1&
0%
1$
#224466
1#
10
0;
18
05
12
1'
0&
1%
0$
#226766
0#
00
1;
08
15
02
0'
1&
0%
1$
#229466
1#
10
0;
18
05
12
1'
0&
1%
0$
#230193
0#
00
1;
08
15
02
0'
1&
0%
1$
#233060
1#
10
0;
18
05
12
1'
0&
1%
0$
#236859
0#
00
1;
08
15
02
0'
1&
0%
1$
#239726
1#
10
0;
18
05
12
1'
0&
1%
0$
#243525
0#
00
1;
08
15
02
0'
1&
0%
1$
#246392
1#
10
0;
18
05
12
1'
0&
1%
0$
#250000
0#
00
1;
08
15
02
0'
1&
0%
1$
#251863
1#
10
0;
18
05
12
1'
0&
1%
0$
#259063
0#
00
1;
08
15
02
0'
1&
0%
1$
#272647
1#
10
0;
18
05
12
1'
0&
1%
0$
#274147
0#
00
1;
08
15
02
0'
1&
0%
1$
#277647
1#
10
0;
18
05
12
1'
0&
1%
0$
#279147
0#
00
1;
08
15
02
0'
1&
0%
1$
#280000
1#
10
0;
18
05
12
1'
0&
1%
0$
#281268
0#
00
1;
08
15
02
0'
1&
0%
1$
#284202
1#
10
0;
18
05
12
1'
0&
1%
0$
#287934
0#
00
1;
08
15
02
0'
1&
0%
1$
#290868
1#
10
0;
18
05
12
1'
0&
1%
0$
#294600
0#
00
1;
08
15
02
0'
1&
0%
1$
#297534
1#
10
0;
18
05
12
1'
0&
1%
0$
#300000
0#
00
1;
08
15
02
0'
1&
0%
1$
#303759
1#
10
0;
18
05
12
1'
0&
1%
0$
#307159
0#
00
1;
08
15
02
0'
1&
0%
1$
#313759
1#
10
0;
18
05
12
1'
0&
1%
0$
#317159
0#
00
1;
08
15
02
0'
1&
0%
1$
#320000
1#
10
0;
18
05
12
1'
0&
1%
0$
#321912
0#
00
1;
08
15
02
0'
1&
0%
1$
#324962
1#
10
0;
18
05
12
1'
0&
1%
0$
#326912
0#
00
1;
08
15
02
0'
1&
0%
1$
#329962
1#
10
0;
18
05
12
1'
0&
1%
0$
#331931
0#
00
1;
08
15
02
0'
1&
0%
1$
#342731
1#
10
0;
18
05
12
1'
0&
1%
0$
#350000
0#
00
1;
08
15
02
0'
1&
0%
1$
#350909
1#
10
0;
18
05
12
1'
0&
1%
0$
#352775
0#
00
1;
08
15
02
0'
1&
0%
1$
#354242
1#
10
0;
18
05
12
1'
0&
1%
0$
#356108
0#
00
1;
08
15
02
0'
1&
0%
1$
#357575
1#
10
0;
18
05
12
1'
0&
1%
0$
#359441
0#
00
1;
08
15
02
0'
1&
0%
1$
#360103
1#
10
0;
18
05
12
1'
0&
1%
0$
#361569
0#
00
1;
08
15
02
0'
1&
0%
1$
#363436
1#
10
0;
18
05
12
1'
0&
1%
0$
#364902
0#
00
1;
08
15
02
0'
1&
0%
1$
#366769
1#
10
0;
18
05
12
1'
0&
1%
0$
#368235
0#
00
1;
08
15
02
0'
1&
0%
1$
#370000
1#
10
0;
18
05
12
1'
0&
1%
0$
#371684
0#
00
1;
08
15
02
0'
1&
0%
1$
#374834
1#
10
0;
18
05
12
1'
0&
1%
0$
#376684
0#
00
1;
08
15
02
0'
1&
0%
1$
#379834
1#
10
0;
18
05
12
1'
0&
1%
0$
#380000
0#
00
1;
08
15
02
0'
1&
0%
1$
#382048
1#
10
0;
18
05
12
1'
0&
1%
0$
#383147
0#
00
1;
08
15
02
0'
1&
0%
1$
#385381
1#
10
0;
18
05
12
1'
0&
1%
0$
#386480
0#
00
1;
08
15
02
0'
1&
0%
1$
#388714
1#
10
0;
18
05
12
1'
0&
1%
0$
#389813
0#
00
1;
08
15
02
0'
1&
0%
1$
#390000
1#
10
0;
18
05
12
1'
0&
1%
0$
#390899
0#
00
1;
08
15
02
0'
1&
0%
1$
#393849
1#
10
0;
18
05
12
1'
0&
1%
0$
#395899
0#
00
1;
08
15
02
0'
1&
0%
1$
#398849
1#
10
0;
18
05
12
1'
0&
1%
0$
#401295
0#
00
1;
08
15
02
0'
1&
0%
1$
#402829
1#
10
0;
18
05
12
1'
0&
1%
0$
#404628
0#
00
1;
08
15
02
0'
1&
0%
1$
#406162
1#
10
0;
18
05
12
1'
0&
1%
0$
#407961
0#
00
1;
08
15
02
0'
1&
0%
1$
#409495
1#
10
0;
18
05
12
1'
0&
1%
0$
#410000
0#
00
1;
08
15
02
0'
1&
0%
1$
#410418
1#
10
0;
18
05
12
1'
0&
1%
0$
#413084
0#
00
1;
08
15
02
0'
1&
0%
1$
#417084
1#
10
0;
18
05
12
1'
0&
1%
0$
#419750
0#
00
1;
08
15
02
0'
1&
0%
1$
#423750
1#
10
0;
18
05
12
1'
0&
1%
0$
#426416
0#
00
1;
08
15
02
0'
1&
0%
1$
#431460
1#
10
0;
18
05
12
1'
0&
1%
0$
#435060
0#
00
1;
08
15
02
0'
1&
0%
1$
#445941
1#
10
0;
18
05
12
1'
0&
1%
0$
#456741
0#
00
1;
08
15
02
0'
1&
0%
1$
#460206
1#
10
0;
18
05
12
1'
0&
1%
0$
#469606
0#
00
1;
08
15
02
0'
1&
0%
1$
#488986
1#
10
0;
18
05
12
1'
0&
1%
0$
#495986
0#
00
1;
08
15
02
0'
1&
0%
1$
#500000
1#
10
0;
18
05
12
1'
0&
1%
0$
#502974
0#
00
1;
08
15
02
0'
1&
0%
1$
#507474
1#
10
0;
18
05
12
1'
0&
1%
0$
#510000
0#
00
1;
08
15
02
0'
1&
0%
1$
#512001
1#
10
0;
18
05
12
1'
0&
1%
0$
#523601
0#
00
1;
08
15
02
0'
1&
0%
1$
#534376
1#
10
0;
18
05
12
1'
0&
1%
0$
#536509
0#
00
1;
08
15
02
0'
1&
0%
1$
#541042
1#
10
0;
18
05
12
1'
0&
1%
0$
#543175
0#
00
1;
08
15
02
0'
1&
0%
1$
#547708
1#
10
0;
18
05
12
1'
0&
1%
0$
#549841
0#
00
1;
08
15
02
0'
1&
0%
1$
#550754
1#
10
0;
18
05
12
1'
0&
1%
0$
#552887
0#
00
1;
08
15
02
0'
1&
0%
1$
#557420
1#
10
0;
18
05
12
1'
0&
1%
0$
#559553
0#
00
1;
08
15
02
0'
1&
0%
1$
#564086
1#
10
0;
18
05
12
1'
0&
1%
0$
#566219
0#
00
1;
08
15
02
0'
1&
0%
1$
#570000
1#
10
0;
18
05
12
1'
0&
1%
0$
#572607
0#
00
1;
08
15
02
0'
1&
0%
1$
#576274
1#
10
0;
18
05
12
1'
0&
1%
0$
#579273
0#
00
1;
08
15
02
0'
1&
0%
1$
#582940
1#
10
0;
18
05
12
1'
0&
1%
0$
#585939
0#
00
1;
08
15
02
0'
1&
0%
1$
#589606
1#
10
0;
18
05
12
1'
0&
1%
0$
#590000
0#
00
1;
08
15
02
0'
1&
0%
1$
#595831
1#
10
0;
18
05
12
1'
0&
1%
0$
#607231
0#
00
1;
08
15
02
0'
1&
0%
1$
#612318
1#
10
0;
18
05
12
1'
0&
1%
0$
#613918
0#
00
1;
08
15
02
0'
1&
0%
1$
#617318
1#
10
0;
18
05
12
1'
0&
1%
0$
#618918
0#
00
1;
08
15
02
0'
1&
0%
1$
#623742
1#
10
0;
18
05
12
1'
0&
1%
0$
#629642
0#
00
1;
08
15
02
0'
1&
0%
1$
#630000
1#
10
0;
18
05
12
1'
0&
1%
0$
#630903
0#
00
1;
08
15
02
0'
1&
0%
1$
#632770
1#
10
0;
18
05
12
1'
0&
1%
0$
#634236
0#
00
1;
08
15
02
0'
1&
0%
1$
#636103
1#
10
0;
18
05
12
1'
0&
1%
0$
#637569
0#
00
1;
08
15
02
0'
1&
0%
1$
#639436
1#
10
0;
18
05
12
1'
0&
1%
0$
#640000
0#
00
1;
08
15
02
0'
1&
0%
1$
#641471
1#
10
0;
18
05
12
1'
0&
1%
0$
#642704
0#
00
1;
08
15
02
0'
1&
0%
1$
#644804
1#
10
0;
18
05
12
1'
0&
1%
0$
#646037
0#
00
1;
08
15
02
0'
1&
0%
1$
#648137
1#
10
0;
18
05
12
1'
0&
1%
0$
#649370
0#
00
1;
08
15
02
0'
1&
0%
1$
#650409
1#
10
0;
18
05
12
1'
0&
1%
0$
#653142
0#
00
1;
08
15
02
0'
1&
0%
1$
#657075
1#
10
0;
18
05
12
1'
0&
1%
0$
#659808
0#
00
1;
08
15
02
0'
1&
0%
1$
#663741
1#
10
0;
18
05
12
1'
0&
1%
0$
#666474
0#
00
1;
08
15
02
0'
1&
0%
1$
#671343
1#
10
0;
18
05
12
1'
0&
1%
0$
#672943
0#
00
1;
08
15
02
0'
1&
0%
1$
#676343
1#
10
0;
18
05
12
1'
0&
1%
0$
#677943
0#
00
1;
08
15
02
0'
1&
0%
1$
#680000
1#
10
0;
18
05
12
1'
0&
1%
0$
#684545
0#
00
1;
08
15
02
0'
1&
0%
1$
#694145
1#
10
0;
18
05
12
1'
0&
1%
0$
#700000
0#
00
1;
08
15
02
0'
1&
0%
1$
#700320
1#
10
0;
18
05
12
1'
0&
1%
0$
#702370
0#
00
1;
08
15
02
0'
1&
0%
1$
#705320
1#
10
0;
18
05
12
1'
0&
1%
0$
#707370
0#
00
1;
08
15
02
0'
1&
0%
1$
#710121
1#
10
0;
18
05
12
1'
0&
1%
0$
#711720
0#
00
1;
08
15
02
0'
1&
0%
1$
#713454
1#
10
0;
18
05
12
1'
0&
1%
0$
#715053
0#
00
1;
08
15
02
0'
1&
0%
1$
#716787
1#
10
0;
18
05
12
1'
0&
1%
0$
#718386
0#
00
1;
08
15
02
0'
1&
0%
1$
#720000
1#
10
0;
18
05
12
1'
0&
1%
0$
#720474
0#
00
1;
08
15
02
0'
1&
0%
1$
#721841
1#
10
0;
18
05
12
1'
0&
1%
0$
#723807
0#
00
1;
08
15
02
0'
1&
0%
1$
#725174
1#
10
0;
18
05
12
1'
0&
1%
0$
#727140
0#
00
1;
08
15
02
0'
1&
0%
1$
#728507
1#
10
0;
18
05
12
1'
0&
1%
0$
#731276
0#
00
1;
08
15
02
0'
1&
0%
1$
#735576
1#
10
0;
18
05
12
1'
0&
1%
0$
#740000
0#
00
1;
08
15
02
0'
1&
0%
1$
#740456
1#
10
0;
18
05
12
1'
0&
1%
0$
#744456
0#
00
1;
08
15
02
0'
1&
0%
1$
#750000
1#
10
0;
18
05
12
1'
0&
1%
0$
#752518
0#
00
1;
08
15
02
0'
1&
0%
1$
#756318
1#
10
0;
18
05
12
1'
0&
1%
0$
#759184
0#
00
1;
08
15
02
0'
1&
0%
1$
#762984
1#
10
0;
18
05
12
1'
0&
1%
0$
#765850
0#
00
1;
08
15
02
0'
1&
0%
1$
#769650
1#
10
0;
18
05
12
1'
0&
1%
0$
#775581
0#
00
1;
08
15
02
0'
1&
0%
1$
#786981
1#
10
0;
18
05
12
1'
0&
1%
0$
#790000
0#
00
1;
08
15
02
0'
1&
0%
1$
#790160
1#
10
0;
18
05
12
1'
0&
1%
0$
#791793
0#
00
1;
08
15
02
0'
1&
0%
1$
#793493
1#
10
0;
18
05
12
1'
0&
1%
0$
#795126
0#
00
1;
08
15
02
0'
1&
0%
1$
#796826
1#
10
0;
18
05
12
1'
0&
1%
0$
#798459
0#
00
1;
08
15
02
0'
1&
0%
1$
#800000
1#
10
0;
18
05
12
1'
0&
1%
0$
#803197
0#
00
1;
08
15
02
0'
1&
0%
1$
#811997
1#
10
0;
18
05
12
1'
0&
1%
0$
#820000
0#
00
1;
08
15
02
0'
1&
0%
1$
#825961
1#
10
0;
18
05
12
1'
0&
1%
0$
#828961
0#
00
1;
08
15
02
0'
1&
0%
1$
#830000
1#
10
0;
18
05
12
1'
0&
1%
0$
#830292
0#
00
1;
08
15
02
0'
1&
0%
1$
#833559
1#
10
0;
18
05
12
1'
0&
1%
0$
#836958
0#
00
1;
08
15
02
0'
1&
0%
1$
#840225
1#
10
0;
18
05
12
1'
0&
1%
0$
#843624
0#
00
1;
08
15
02
0'
1&
0%
1$
#846891
1#
10
0;
18
05
12
1'
0&
1%
0$
#852713
0#
00
1;
08
15
02
0'
1&
0%
1$
#855447
1#
10
0;
18
05
12
1'
0&
1%
0$
#859379
0#
00
1;
08
15
02
0'
1&
0%
1$
#862113
1#
10
0;
18
05
12
1'
0&
1%
0$
#866045
0#
00
1;
08
15
02
0'
1&
0%
1$
#868779
1#
10
0;
18
05
12
1'
0&
1%
0$
#872994
0#
00
1;
08
15
02
0'
1&
0%
1$
#878394
1#
10
0;
18
05
12
1'
0&
1%
0$
#880000
0#
00
1;
08
15
02
0'
1&
0%
1$
#883648
1#
10
0;
18
05
12
1'
0&
1%
0$
#885781
0#
00
1;
08
15
02
0'
1&
0%
1$
#890314
1#
10
0;
18
05
12
1'
0&
1%
0$
#892447
0#
00
1;
08
15
02
0'
1&
0%
1$
#896980
1#
10
0;
18
05
12
1'
0&
1%
0$
#899113
0#
00
1;
08
15
02
0'
1&
0%
1$
#903752
1#
10
0;
18
05
12
1'
0&
1%
0$
#914352
0#
00
1;
08
15
02
0'
1&
0%
1$
#920430
1#
10
0;
18
05
12
1'
0&
1%
0$
#921796
0#
00
1;
08
15
02
0'
1&
0%
1$
#923763
1#
10
0;
18
05
12
1'
0&
1%
0$
#925129
0#
00
1;
08
15
02
0'
1&
0%
1$
#927096
1#
10
0;
18
05
12
1'
0&
1%
0$
#928462
0#
00
1;
08
15
02
0'
1&
0%
1$
#930000
1#
10
0;
18
05
12
1'
0&
1%
0$
#934175
0#
00
1;
08
15
02
0'
1&
0%
1$
#938175
1#
10
0;
18
05
12
1'
0&
1%
0$
#944175
0#
00
1;
08
15
02
0'
1&
0%
1$
#948175
1#
10
0;
18
05
12
1'
0&
1%
0$
#950000
0#
00
1;
08
15
02
0'
1&
0%
1$
#952863
1#
10
0;
18
05
12
1'
0&
1%
0$
#957563
0#
00
1;
08
15
02
0'
1&
0%
1$
#962863
1#
10
0;
18
05
12
1'
0&
1%
0$
#967563
0#
00
1;
08
15
02
0'
1&
0%
1$
#970000
1#
10
0;
18
05
12
1'
0&
1%
0$
#973822
0#
00
1;
08
15
02
0'
1&
0%
1$
#979622
1#
10
0;
18
05
12
1'
0&
1%
0$
#980356
0#
00
1;
08
15
02
0'
1&
0%
1$
#981956
1#
10
0;
18
05
12
1'
0&
1%
0$
#983689
0#
00
1;
08
15
02
0'
1&
0%
1$
#985289
1#
10
0;
18
05
12
1'
0&
1%
0$
#987022
0#
00
1;
08
15
02
0'
1&
0%
1$
#988622
1#
10
0;
18
05
12
1'
0&
1%
0$
#990000
0#
00
1;
08
15
02
0'
1&
0%
1$
#994203
1#
10
0;
18
05
12
1'
0&
1%
0$
#998703
0#
00
1;
08
15
02
0'
1&
0%
1$
