flopr/simulation/qsim/flopr.msim.vcd
$comment
	File created using the following command:
		vcd file flopr.msim.vcd -direction
$end
$date
	Thu Apr 07 11:36:35 2022
$end
$version
	ModelSim Version 2020.1
$end
$timescale
	1ps
$end

$scope module flopr_vlg_vec_tst $end
$var reg 1 ! clk $end
$var reg 4 " d [3:0] $end
$var reg 1 # reset $end
$var wire 1 $ q [3] $end
$var wire 1 % q [2] $end
$var wire 1 & q [1] $end
$var wire 1 ' q [0] $end

$scope module i1 $end
$var wire 1 ( gnd $end
$var wire 1 ) vcc $end
$var wire 1 * unknown $end
$var tri1 1 + devclrn $end
$var tri1 1 , devpor $end
$var tri1 1 - devoe $end
$var wire 1 . q[0]~output_o $end
$var wire 1 / q[1]~output_o $end
$var wire 1 0 q[2]~output_o $end
$var wire 1 1 q[3]~output_o $end
$var wire 1 2 clk~input_o $end
$var wire 1 3 reset~input_o $end
$var wire 1 4 d[0]~input_o $end
$var wire 1 5 q~0_combout $end
$var wire 1 6 q[0]~reg0_q $end
$var wire 1 7 d[1]~input_o $end
$var wire 1 8 q~1_combout $end
$var wire 1 9 q[1]~reg0_q $end
$var wire 1 : d[2]~input_o $end
$var wire 1 ; q~2_combout $end
$var wire 1 < q[2]~reg0_q $end
$var wire 1 = d[3]~input_o $end
$var wire 1 > q~3_combout $end
$var wire 1 ? q[3]~reg0_q $end
$upscope $end
$upscope $end
$enddefinitions $end
#0
$dumpvars
0!
b1011 "
1#
0'
0&
0%
0$
0(
1)
x*
1+
1,
1-
0.
0/
00
01
02
13
14
15
06
17
08
09
0:
0;
0<
1=
0>
0?
$end
#25000
1!
12
16
1.
1'
#50000
b11 "
b1 "
b0 "
0!
04
07
0=
02
#75000
1!
12
#100000
0#
b1000 "
b1010 "
0!
03
17
1=
02
1>
18
05
#125000
1!
12
1?
19
06
0.
1/
11
1$
1&
0'
#150000
b1110 "
b110 "
0!
1:
0=
02
0>
1;
#175000
1!
12
0?
1<
10
01
0$
1%
#200000
b10 "
b1010 "
0!
0:
1=
02
1>
0;
#225000
1!
12
1?
0<
00
11
1$
0%
#250000
b1110 "
b110 "
0!
1:
0=
02
0>
1;
#275000
1!
12
0?
1<
10
01
0$
1%
#300000
b111 "
0!
14
02
15
#325000
1!
12
16
1.
1'
#350000
b101 "
b1 "
0!
07
0:
02
0;
08
#375000
1!
12
0<
09
0/
00
0%
0&
#400000
b1001 "
b1011 "
0!
17
1=
02
1>
18
#425000
1!
12
1?
19
1/
11
1$
1&
#450000
b1111 "
b111 "
0!
1:
0=
02
0>
1;
#475000
1!
12
0?
1<
10
01
0$
1%
#500000
0!
02
#525000
1!
12
#550000
b110 "
b100 "
b0 "
b1000 "
0!
04
07
0:
1=
02
1>
0;
08
05
#575000
1!
12
1?
0<
09
06
0.
0/
00
11
1$
0%
0&
0'
#600000
b1001 "
0!
14
02
15
#625000
1!
12
16
1.
1'
#650000
0!
02
#675000
1!
12
#700000
b1 "
0!
0=
02
0>
#725000
1!
12
0?
01
0$
#750000
b101 "
0!
1:
02
1;
#775000
1!
12
1<
10
1%
#800000
b111 "
b11 "
0!
17
0:
02
0;
18
#825000
1!
12
0<
19
1/
00
0%
1&
#850000
b10 "
b110 "
0!
04
1:
02
1;
05
#875000
1!
12
1<
06
0.
10
1%
0'
#900000
0!
02
#925000
1!
12
#950000
0!
02
#975000
1!
12
