sieteseg/simulation/qsim/sevenseg.msim.vcd
$comment
	File created using the following command:
		vcd file sevenseg.msim.vcd -direction
$end
$date
	Mon May 02 17:14:16 2022
$end
$version
	ModelSim Version 2020.1
$end
$timescale
	1ps
$end

$scope module sevenseg_vlg_vec_tst $end
$var reg 1 ! clk $end
$var reg 1 " reset $end
$var wire 1 # segments [6] $end
$var wire 1 $ segments [5] $end
$var wire 1 % segments [4] $end
$var wire 1 & segments [3] $end
$var wire 1 ' segments [2] $end
$var wire 1 ( segments [1] $end
$var wire 1 ) segments [0] $end

$scope module i1 $end
$var wire 1 * gnd $end
$var wire 1 + vcc $end
$var wire 1 , unknown $end
$var tri1 1 - devclrn $end
$var tri1 1 . devpor $end
$var tri1 1 / devoe $end
$var wire 1 0 segments[0]~output_o $end
$var wire 1 1 segments[1]~output_o $end
$var wire 1 2 segments[2]~output_o $end
$var wire 1 3 segments[3]~output_o $end
$var wire 1 4 segments[4]~output_o $end
$var wire 1 5 segments[5]~output_o $end
$var wire 1 6 segments[6]~output_o $end
$var wire 1 7 clk~input_o $end
$var wire 1 8 divisor|Add0~101_sumout $end
$var wire 1 9 reset~input_o $end
$var wire 1 : divisor|Add0~102 $end
$var wire 1 ; divisor|Add0~97_sumout $end
$var wire 1 < divisor|Add0~98 $end
$var wire 1 = divisor|Add0~93_sumout $end
$var wire 1 > divisor|Add0~94 $end
$var wire 1 ? divisor|Add0~89_sumout $end
$var wire 1 @ divisor|Add0~90 $end
$var wire 1 A divisor|Add0~85_sumout $end
$var wire 1 B divisor|Add0~86 $end
$var wire 1 C divisor|Add0~81_sumout $end
$var wire 1 D divisor|Add0~82 $end
$var wire 1 E divisor|Add0~25_sumout $end
$var wire 1 F divisor|Add0~26 $end
$var wire 1 G divisor|Add0~21_sumout $end
$var wire 1 H divisor|Add0~22 $end
$var wire 1 I divisor|Add0~29_sumout $end
$var wire 1 J divisor|Add0~30 $end
$var wire 1 K divisor|Add0~37_sumout $end
$var wire 1 L divisor|Add0~38 $end
$var wire 1 M divisor|Add0~33_sumout $end
$var wire 1 N divisor|Add0~34 $end
$var wire 1 O divisor|Add0~41_sumout $end
$var wire 1 P divisor|Add0~42 $end
$var wire 1 Q divisor|Add0~45_sumout $end
$var wire 1 R divisor|Add0~46 $end
$var wire 1 S divisor|Add0~53_sumout $end
$var wire 1 T divisor|Add0~54 $end
$var wire 1 U divisor|Add0~49_sumout $end
$var wire 1 V divisor|Add0~50 $end
$var wire 1 W divisor|Add0~17_sumout $end
$var wire 1 X divisor|Add0~18 $end
$var wire 1 Y divisor|Add0~13_sumout $end
$var wire 1 Z divisor|Add0~14 $end
$var wire 1 [ divisor|Add0~9_sumout $end
$var wire 1 \ divisor|Add0~10 $end
$var wire 1 ] divisor|Add0~57_sumout $end
$var wire 1 ^ divisor|Add0~58 $end
$var wire 1 _ divisor|Add0~61_sumout $end
$var wire 1 ` divisor|Add0~62 $end
$var wire 1 a divisor|Add0~65_sumout $end
$var wire 1 b divisor|Add0~66 $end
$var wire 1 c divisor|Add0~73_sumout $end
$var wire 1 d divisor|Add0~74 $end
$var wire 1 e divisor|Add0~69_sumout $end
$var wire 1 f divisor|Add0~70 $end
$var wire 1 g divisor|Add0~77_sumout $end
$var wire 1 h divisor|Add0~78 $end
$var wire 1 i divisor|Add0~5_sumout $end
$var wire 1 j divisor|Add0~6 $end
$var wire 1 k divisor|Add0~1_sumout $end
$var wire 1 l divisor|LessThan0~0_combout $end
$var wire 1 m divisor|LessThan0~1_combout $end
$var wire 1 n divisor|LessThan0~2_combout $end
$var wire 1 o divisor|LessThan0~3_combout $end
$var wire 1 p rtl~0_combout $end
$var wire 1 q contador|q~3_combout $end
$var wire 1 r contador|q~2_combout $end
$var wire 1 s contador|q~1_combout $end
$var wire 1 t contador|q~0_combout $end
$var wire 1 u WideOr6~0_combout $end
$var wire 1 v WideOr5~0_combout $end
$var wire 1 w WideOr4~0_combout $end
$var wire 1 x WideOr3~0_combout $end
$var wire 1 y WideOr2~0_combout $end
$var wire 1 z WideOr1~0_combout $end
$var wire 1 { WideOr0~0_combout $end
$var wire 1 | divisor|count [25] $end
$var wire 1 } divisor|count [24] $end
$var wire 1 ~ divisor|count [23] $end
$var wire 1 !! divisor|count [22] $end
$var wire 1 "! divisor|count [21] $end
$var wire 1 #! divisor|count [20] $end
$var wire 1 $! divisor|count [19] $end
$var wire 1 %! divisor|count [18] $end
$var wire 1 &! divisor|count [17] $end
$var wire 1 '! divisor|count [16] $end
$var wire 1 (! divisor|count [15] $end
$var wire 1 )! divisor|count [14] $end
$var wire 1 *! divisor|count [13] $end
$var wire 1 +! divisor|count [12] $end
$var wire 1 ,! divisor|count [11] $end
$var wire 1 -! divisor|count [10] $end
$var wire 1 .! divisor|count [9] $end
$var wire 1 /! divisor|count [8] $end
$var wire 1 0! divisor|count [7] $end
$var wire 1 1! divisor|count [6] $end
$var wire 1 2! divisor|count [5] $end
$var wire 1 3! divisor|count [4] $end
$var wire 1 4! divisor|count [3] $end
$var wire 1 5! divisor|count [2] $end
$var wire 1 6! divisor|count [1] $end
$var wire 1 7! divisor|count [0] $end
$var wire 1 8! contador|q [3] $end
$var wire 1 9! contador|q [2] $end
$var wire 1 :! contador|q [1] $end
$var wire 1 ;! contador|q [0] $end
$upscope $end
$upscope $end
$enddefinitions $end
#0
$dumpvars
0!
1"
0)
1(
1'
1&
1%
1$
1#
0*
1+
x,
1-
1.
1/
00
11
12
13
14
15
16
07
18
19
0:
0;
0<
0=
0>
0?
0@
0A
0B
0C
0D
0E
0F
0G
0H
0I
0J
0K
0L
0M
0N
0O
0P
0Q
0R
0S
0T
0U
0V
0W
0X
0Y
0Z
0[
0\
0]
0^
0_
0`
0a
0b
0c
0d
0e
0f
0g
0h
0i
0j
0k
1l
0m
1n
0o
0p
0q
0r
0s
1t
0u
0v
0w
0x
0y
0z
0{
07!
06!
05!
04!
03!
02!
01!
00!
0/!
0.!
0-!
0,!
0+!
0*!
0)!
0(!
0'!
0&!
0%!
0$!
0#!
0"!
0!!
0~
0}
0|
0;!
0:!
09!
08!
$end
#10000
1!
17
17!
1:
08
1;
#20000
0!
07
#30000
1!
17
16!
07!
0:
1<
18
0;
0<
1;
1=
0=
#40000
0!
07
#50000
0"
1!
09
17
0t
06!
0;
#60000
0!
07
#70000
1!
17
#80000
0!
07
#90000
1!
17
#100000
1"
0!
19
07
1t
#110000
1!
17
17!
1:
08
1;
#120000
0!
07
#130000
1!
17
16!
07!
0:
1<
18
0;
0<
1;
1=
0=
#140000
0!
07
#150000
1!
17
17!
1:
08
1<
0;
1=
#160000
0!
07
#170000
1!
17
15!
06!
07!
0:
0<
1>
18
1;
0=
0>
0;
1=
1?
0?
#180000
0!
07
#190000
1!
17
17!
1:
08
1;
#200000
0!
07
#210000
1!
17
16!
07!
0:
1<
18
0;
0<
1>
1;
0=
0>
1=
1?
0?
#220000
0!
07
#230000
1!
17
17!
1:
08
1<
0;
1>
0=
1?
#240000
0!
07
#250000
1!
17
14!
05!
06!
07!
0:
0<
0>
1@
18
1;
1=
0?
0@
0;
0=
1?
1A
0A
#260000
0!
07
#270000
1!
17
17!
1:
08
1;
#280000
0!
07
#290000
1!
17
16!
07!
0:
1<
18
0;
0<
1;
1=
0=
#300000
0!
07
#310000
1!
17
17!
1:
08
1<
0;
1=
#320000
0!
07
#330000
1!
17
15!
06!
07!
0:
0<
1>
18
1;
0=
0>
1@
0;
1=
0?
0@
1?
1A
0A
#340000
0!
07
#350000
1!
17
17!
1:
08
1;
#360000
0!
07
#370000
1!
17
16!
07!
0:
1<
18
0;
0<
1>
1;
0=
0>
1@
1=
0?
0@
1?
1A
0A
#380000
0!
07
#390000
1!
17
17!
1:
08
1<
0;
1>
0=
1@
0?
1A
#400000
0!
07
#410000
1!
17
13!
04!
05!
06!
07!
0:
0<
0>
0@
1B
18
1;
1=
1?
0A
0B
0;
0=
0?
1A
1C
0C
#420000
0!
07
#430000
1!
17
17!
1:
08
1;
#440000
0!
07
#450000
1!
17
16!
07!
0:
1<
18
0;
0<
1;
1=
0=
#460000
0!
07
#470000
1!
17
17!
1:
08
1<
0;
1=
#480000
0!
07
#490000
1!
17
15!
06!
07!
0:
0<
1>
18
1;
0=
0>
0;
1=
1?
0?
#500000
0!
07
#510000
1!
17
17!
1:
08
1;
#520000
0!
07
#530000
1!
17
16!
07!
0:
1<
18
0;
0<
1>
1;
0=
0>
1=
1?
0?
#540000
0!
07
#550000
1!
17
17!
1:
08
1<
0;
1>
0=
1?
#560000
0!
07
#570000
1!
17
14!
05!
06!
07!
0:
0<
0>
1@
18
1;
1=
0?
0@
1B
0;
0=
1?
0A
0B
1A
1C
0C
#580000
0!
07
#590000
1!
17
17!
1:
08
1;
#600000
0!
07
#610000
1!
17
16!
07!
0:
1<
18
0;
0<
1;
1=
0=
#620000
0!
07
#630000
1!
17
17!
1:
08
1<
0;
1=
#640000
0!
07
#650000
1!
17
15!
06!
07!
0:
0<
1>
18
1;
0=
0>
1@
0;
1=
0?
0@
1B
1?
0A
0B
1A
1C
0C
#660000
0!
07
#670000
1!
17
17!
1:
08
1;
#680000
0!
07
#690000
1!
17
16!
07!
0:
1<
18
0;
0<
1>
1;
0=
0>
1@
1=
0?
0@
1B
1?
0A
0B
1A
1C
0C
#700000
0!
07
#710000
1!
17
17!
1:
08
1<
0;
1>
0=
1@
0?
1B
0A
1C
#720000
0!
07
#730000
1!
17
12!
03!
04!
05!
06!
07!
0:
0<
0>
0@
0B
1D
18
1;
1=
1?
1A
0C
0D
0;
0=
0?
0A
1C
1E
0E
#740000
0!
07
#750000
1!
17
17!
1:
08
1;
#760000
0!
07
#770000
1!
17
16!
07!
0:
1<
18
0;
0<
1;
1=
0=
#780000
0!
07
#790000
1!
17
17!
1:
08
1<
0;
1=
#800000
0!
07
#810000
1!
17
15!
06!
07!
0:
0<
1>
18
1;
0=
0>
0;
1=
1?
0?
#820000
0!
07
#830000
1!
17
17!
1:
08
1;
#840000
0!
07
#850000
1!
17
16!
07!
0:
1<
18
0;
0<
1>
1;
0=
0>
1=
1?
0?
#860000
0!
07
#870000
1!
17
17!
1:
08
1<
0;
1>
0=
1?
#880000
0!
07
#890000
1!
17
14!
05!
06!
07!
0:
0<
0>
1@
18
1;
1=
0?
0@
0;
0=
1?
1A
0A
#900000
0!
07
#910000
1!
17
17!
1:
08
1;
#920000
0!
07
#930000
1!
17
16!
07!
0:
1<
18
0;
0<
1;
1=
0=
#940000
0!
07
#950000
1!
17
17!
1:
08
1<
0;
1=
#960000
0!
07
#970000
1!
17
15!
06!
07!
0:
0<
1>
18
1;
0=
0>
1@
0;
1=
0?
0@
1?
1A
0A
#980000
0!
07
#990000
1!
17
17!
1:
08
1;
