counter/simulation/qsim/counter_c.msim.vcd
$comment
	File created using the following command:
		vcd file counter_c.msim.vcd -direction
$end
$date
	Mon Apr 18 11:56:41 2022
$end
$version
	ModelSim Version 2020.1
$end
$timescale
	1ps
$end

$scope module counter_c_vlg_vec_tst $end
$var reg 1 ! clk $end
$var reg 1 " reset $end
$var wire 1 # q [3] $end
$var wire 1 $ q [2] $end
$var wire 1 % q [1] $end
$var wire 1 & q [0] $end

$scope module i1 $end
$var wire 1 ' gnd $end
$var wire 1 ( vcc $end
$var wire 1 ) unknown $end
$var tri1 1 * devclrn $end
$var tri1 1 + devpor $end
$var tri1 1 , devoe $end
$var wire 1 - q[0]~output_o $end
$var wire 1 . q[1]~output_o $end
$var wire 1 / q[2]~output_o $end
$var wire 1 0 q[3]~output_o $end
$var wire 1 1 clk~input_o $end
$var wire 1 2 reset~input_o $end
$var wire 1 3 q~0_combout $end
$var wire 1 4 q[0]~reg0_q $end
$var wire 1 5 q~1_combout $end
$var wire 1 6 q[1]~reg0_q $end
$var wire 1 7 q~2_combout $end
$var wire 1 8 q[2]~reg0_q $end
$var wire 1 9 q~3_combout $end
$var wire 1 : q[3]~reg0_q $end
$upscope $end
$upscope $end
$enddefinitions $end
#0
$dumpvars
0!
0"
0&
0%
0$
0#
0'
1(
x)
1*
1+
1,
0-
0.
0/
00
01
02
13
04
05
06
07
08
09
0:
$end
#25000
1!
11
14
1-
1&
15
03
#50000
1"
0!
12
01
05
#75000
1!
11
04
0-
0&
#100000
0"
0!
02
01
13
#125000
1!
11
14
1-
1&
15
03
#150000
0!
01
#175000
1!
11
16
04
0-
1.
1%
0&
13
#200000
0!
01
#225000
1!
11
14
1-
1&
17
05
03
#250000
0!
01
#275000
1!
11
18
06
04
0-
0.
1/
1$
0%
0&
13
#300000
0!
01
#325000
1!
11
14
1-
1&
15
03
#350000
0!
01
#375000
1!
11
16
04
0-
1.
1%
0&
13
#400000
0!
01
#425000
1!
11
14
1-
1&
19
07
05
03
#450000
0!
01
#475000
1!
11
1:
08
06
04
0-
0.
0/
10
1#
0$
0%
0&
13
#500000
0!
01
#525000
1!
11
14
1-
1&
15
03
#550000
1"
0!
12
01
09
05
#575000
1!
11
0:
04
0-
00
0#
0&
#600000
0"
0!
02
01
13
#625000
1!
11
14
1-
1&
15
03
#650000
0!
01
#675000
1!
11
16
04
0-
1.
1%
0&
13
#700000
0!
01
#725000
1!
11
14
1-
1&
17
05
03
#750000
0!
01
#775000
1!
11
18
06
04
0-
0.
1/
1$
0%
0&
13
#800000
0!
01
#825000
1!
11
14
1-
1&
15
03
#850000
0!
01
#875000
1!
11
16
04
0-
1.
1%
0&
13
#900000
0!
01
#925000
1!
11
14
1-
1&
19
07
05
03
#950000
0!
01
#975000
1!
11
1:
08
06
04
0-
0.
0/
10
1#
0$
0%
0&
13
