maquinasEstado/mealy/simulation/qsim/historyFSM.msim.vcd
$comment
	File created using the following command:
		vcd file historyFSM.msim.vcd -direction
$end
$date
	Fri May 06 11:49:24 2022
$end
$version
	ModelSim Version 2020.1
$end
$timescale
	1ps
$end

$scope module historyFSM_vlg_vec_tst $end
$var reg 1 ! a $end
$var reg 1 " clk $end
$var reg 1 # reset $end
$var wire 1 $ x $end
$var wire 1 % y $end

$scope module i1 $end
$var wire 1 & gnd $end
$var wire 1 ' vcc $end
$var wire 1 ( unknown $end
$var tri1 1 ) devclrn $end
$var tri1 1 * devpor $end
$var tri1 1 + devoe $end
$var wire 1 , x~output_o $end
$var wire 1 - y~output_o $end
$var wire 1 . a~input_o $end
$var wire 1 / clk~input_o $end
$var wire 1 0 reset~input_o $end
$var wire 1 1 state~10_combout $end
$var wire 1 2 state.S2~q $end
$var wire 1 3 state~9_combout $end
$var wire 1 4 state.S1~q $end
$var wire 1 5 state~12_combout $end
$var wire 1 6 state.S3~q $end
$var wire 1 7 state~11_combout $end
$var wire 1 8 state.S4~q $end
$var wire 1 9 x~0_combout $end
$var wire 1 : y~0_combout $end
$upscope $end
$upscope $end
$enddefinitions $end
#0
$dumpvars
0!
0"
1#
0$
0%
0&
1'
x(
1)
1*
1+
0,
0-
0.
0/
10
01
02
03
04
05
06
07
08
09
0:
$end
#4148
1!
1.
#9948
0!
0.
#14148
1!
1.
#15000
1"
1/
#19948
0!
0.
#21152
1!
1.
#22751
0!
0.
#24485
1!
1.
#26084
0!
0.
#27818
1!
1.
#29417
0!
0.
#30000
0"
1!
1.
0/
#36598
0!
0.
#45000
1"
1/
#47598
1!
1.
#50000
0#
00
15
#50253
0!
0.
05
13
#53053
1!
1.
15
03
#55253
0!
0.
05
13
#58053
1!
1.
15
03
#60000
0"
0/
#64790
0!
0.
05
13
#73190
1!
1.
15
03
#75000
1"
1/
16
19
17
05
1,
1$
#80000
0!
0.
09
07
13
0,
0$
#80059
1!
1.
19
17
03
1,
1$
#81425
0!
0.
09
07
13
0,
0$
#83392
1!
1.
19
17
03
1,
1$
#84758
0!
0.
09
07
13
0,
0$
#86725
1!
1.
19
17
03
1,
1$
#88091
0!
0.
09
07
13
0,
0$
#90000
0"
0/
#93661
1!
1.
19
17
03
1,
1$
#98361
0!
0.
09
07
13
0,
0$
#103661
1!
1.
19
17
03
1,
1$
#105000
1"
1/
18
06
1:
1-
1%
#108361
0!
0.
0:
09
07
13
0,
0-
0%
0$
#110051
1!
1.
1:
19
17
03
1,
1-
1%
1$
#113751
0!
0.
0:
09
07
13
0,
0-
0%
0$
#120000
0"
0/
#120051
1!
1.
1:
19
17
03
1,
1-
1%
1$
#123751
0!
0.
0:
09
07
13
0,
0-
0%
0$
#130000
1!
1.
1:
19
17
03
1,
1-
1%
1$
#135000
1"
1/
#136084
0!
0.
0:
09
07
13
0,
0-
0%
0$
#149884
1!
1.
1:
19
17
03
1,
1-
1%
1$
#150000
0"
0!
0.
0/
0:
09
07
13
0,
0-
0%
0$
#155355
1!
1.
1:
19
17
03
1,
1-
1%
1$
#165000
1"
1/
#166755
0!
0.
0:
09
07
13
0,
0-
0%
0$
#170000
1!
1.
1:
19
17
03
1,
1-
1%
1$
#171678
0!
0.
0:
09
07
13
0,
0-
0%
0$
#173312
1!
1.
1:
19
17
03
1,
1-
1%
1$
#175011
0!
0.
0:
09
07
13
0,
0-
0%
0$
#176645
1!
1.
1:
19
17
03
1,
1-
1%
1$
#178344
0!
0.
0:
09
07
13
0,
0-
0%
0$
#179978
1!
1.
1:
19
17
03
1,
1-
1%
1$
#180000
0"
0/
#180008
0!
0.
0:
09
07
13
0,
0-
0%
0$
#188208
1!
1.
1:
19
17
03
1,
1-
1%
1$
#195000
1"
1/
#200000
0!
0.
0:
09
07
13
0,
0-
0%
0$
#203075
1!
1.
1:
19
17
03
1,
1-
1%
1$
#207475
0!
0.
0:
09
07
13
0,
0-
0%
0$
#210000
0"
0/
#213075
1!
1.
1:
19
17
03
1,
1-
1%
1$
#217475
0!
0.
0:
09
07
13
0,
0-
0%
0$
#220000
1!
1.
1:
19
17
03
1,
1-
1%
1$
#221811
0!
0.
0:
09
07
13
0,
0-
0%
0$
#225000
1"
1/
08
14
19
03
11
1,
1$
#228411
1!
1.
09
15
01
0,
0$
#231811
0!
0.
19
05
11
1,
1$
#238411
1!
1.
09
15
01
0,
0$
#240000
0"
0/
#243251
0!
0.
19
05
11
1,
1$
#249651
1!
1.
09
15
01
0,
0$
#250982
0!
0.
19
05
11
1,
1$
#255000
1"
1/
04
12
1:
1-
1%
#260382
1!
1.
0:
09
15
01
0,
0-
0%
0$
#270000
0"
0!
0.
0/
1:
19
05
11
1,
1-
1%
1$
#270124
1!
1.
0:
09
15
01
0,
0-
0%
0$
#271357
0!
0.
1:
19
05
11
1,
1-
1%
1$
#273457
1!
1.
0:
09
15
01
0,
0-
0%
0$
#274690
0!
0.
1:
19
05
11
1,
1-
1%
1$
#276790
1!
1.
0:
09
15
01
0,
0-
0%
0$
#278023
0!
0.
1:
19
05
11
1,
1-
1%
1$
#280000
1!
1.
0:
09
15
01
0,
0-
0%
0$
#280359
0!
0.
1:
19
05
11
1,
1-
1%
1$
#283659
1!
1.
0:
09
15
01
0,
0-
0%
0$
#285000
1"
1/
16
02
19
17
05
1,
1$
#285359
0!
0.
09
07
13
0,
0$
#288659
1!
1.
19
17
03
1,
1$
#290000
0!
0.
09
07
13
0,
0$
#291664
1!
1.
19
17
03
1,
1$
#296564
0!
0.
09
07
13
0,
0$
#300000
0"
0/
#301664
1!
1.
19
17
03
1,
1$
#306564
0!
0.
09
07
13
0,
0$
#312742
1!
1.
19
17
03
1,
1$
#315000
1"
1/
18
06
1:
1-
1%
#317342
0!
0.
0:
09
07
13
0,
0-
0%
0$
#322742
1!
1.
1:
19
17
03
1,
1-
1%
1$
#327342
0!
0.
0:
09
07
13
0,
0-
0%
0$
#330000
0"
0/
#338105
1!
1.
1:
19
17
03
1,
1-
1%
1$
#345000
1"
1/
#347705
0!
0.
0:
09
07
13
0,
0-
0%
0$
#350000
1!
1.
1:
19
17
03
1,
1-
1%
1$
#351757
0!
0.
0:
09
07
13
0,
0-
0%
0$
#353324
1!
1.
1:
19
17
03
1,
1-
1%
1$
#355090
0!
0.
0:
09
07
13
0,
0-
0%
0$
#356657
1!
1.
1:
19
17
03
1,
1-
1%
1$
#358423
0!
0.
0:
09
07
13
0,
0-
0%
0$
#359990
1!
1.
1:
19
17
03
1,
1-
1%
1$
#360000
0"
0/
#362369
0!
0.
0:
09
07
13
0,
0-
0%
0$
#366502
1!
1.
1:
19
17
03
1,
1-
1%
1$
#369035
0!
0.
0:
09
07
13
0,
0-
0%
0$
#373168
1!
1.
1:
19
17
03
1,
1-
1%
1$
#375000
1"
1/
#375701
0!
0.
0:
09
07
13
0,
0-
0%
0$
#379834
1!
1.
1:
19
17
03
1,
1-
1%
1$
#381182
0!
0.
0:
09
07
13
0,
0-
0%
0$
#383632
1!
1.
1:
19
17
03
1,
1-
1%
1$
#386182
0!
0.
0:
09
07
13
0,
0-
0%
0$
#388632
1!
1.
1:
19
17
03
1,
1-
1%
1$
#390000
0"
0!
0.
0/
0:
09
07
13
0,
0-
0%
0$
#395346
1!
1.
1:
19
17
03
1,
1-
1%
1$
#399546
0!
0.
0:
09
07
13
0,
0-
0%
0$
#405000
1"
1/
08
14
19
03
11
1,
1$
#405346
1!
1.
09
15
01
0,
0$
#409546
0!
0.
19
05
11
1,
1$
#410000
1!
1.
09
15
01
0,
0$
#410922
0!
0.
19
05
11
1,
1$
#413222
1!
1.
09
15
01
0,
0$
#414255
0!
0.
19
05
11
1,
1$
#416555
1!
1.
09
15
01
0,
0$
#417588
0!
0.
19
05
11
1,
1$
#419888
1!
1.
09
15
01
0,
0$
#420000
0"
0!
0.
0/
19
05
11
1,
1$
#425254
1!
1.
09
15
01
0,
0$
#429154
0!
0.
19
05
11
1,
1$
#435000
1"
1/
04
12
1:
1-
1%
#435254
1!
1.
0:
09
15
01
0,
0-
0%
0$
#439154
0!
0.
1:
19
05
11
1,
1-
1%
1$
#443169
1!
1.
0:
09
15
01
0,
0-
0%
0$
#447569
0!
0.
1:
19
05
11
1,
1-
1%
1$
#450000
0"
0/
#453169
1!
1.
0:
09
15
01
0,
0-
0%
0$
#457569
0!
0.
1:
19
05
11
1,
1-
1%
1$
#460717
1!
1.
0:
09
15
01
0,
0-
0%
0$
#461783
0!
0.
1:
19
05
11
1,
1-
1%
1$
#464050
1!
1.
0:
09
15
01
0,
0-
0%
0$
#465000
1"
1/
16
02
19
17
05
1,
1$
#465116
0!
0.
09
07
13
0,
0$
#467383
1!
1.
19
17
03
1,
1$
#468449
0!
0.
09
07
13
0,
0$
#470000
1!
1.
19
17
03
1,
1$
#471017
0!
0.
09
07
13
0,
0$
#477217
1!
1.
19
17
03
1,
1$
#480000
0"
0!
0.
0/
09
07
13
0,
0$
#482007
1!
1.
19
17
03
1,
1$
#486407
0!
0.
09
07
13
0,
0$
#492007
1!
1.
19
17
03
1,
1$
#495000
1"
1/
18
06
1:
1-
1%
#496407
0!
0.
0:
09
07
13
0,
0-
0%
0$
#502556
1!
1.
1:
19
17
03
1,
1-
1%
1$
#505089
0!
0.
0:
09
07
13
0,
0-
0%
0$
#509222
1!
1.
1:
19
17
03
1,
1-
1%
1$
#510000
0"
0/
#511755
0!
0.
0:
09
07
13
0,
0-
0%
0$
#515888
1!
1.
1:
19
17
03
1,
1-
1%
1$
#518421
0!
0.
0:
09
07
13
0,
0-
0%
0$
#524845
1!
1.
1:
19
17
03
1,
1-
1%
1$
#525000
1"
1/
#528345
0!
0.
0:
09
07
13
0,
0-
0%
0$
#534845
1!
1.
1:
19
17
03
1,
1-
1%
1$
#538345
0!
0.
0:
09
07
13
0,
0-
0%
0$
#540000
0"
1!
1.
0/
1:
19
17
03
1,
1-
1%
1$
#540039
0!
0.
0:
09
07
13
0,
0-
0%
0$
#541906
1!
1.
1:
19
17
03
1,
1-
1%
1$
#543372
0!
0.
0:
09
07
13
0,
0-
0%
0$
#545239
1!
1.
1:
19
17
03
1,
1-
1%
1$
#546705
0!
0.
0:
09
07
13
0,
0-
0%
0$
#548572
1!
1.
1:
19
17
03
1,
1-
1%
1$
#551812
0!
0.
0:
09
07
13
0,
0-
0%
0$
#555000
1"
1/
08
14
19
03
11
1,
1$
#555412
1!
1.
09
15
01
0,
0$
#558478
0!
0.
19
05
11
1,
1$
#562078
1!
1.
09
15
01
0,
0$
#565144
0!
0.
19
05
11
1,
1$
#568744
1!
1.
09
15
01
0,
0$
#570000
0"
0/
#578520
0!
0.
19
05
11
1,
1$
#585000
1"
1/
04
12
1:
1-
1%
#589120
1!
1.
0:
09
15
01
0,
0-
0%
0$
#590000
0!
0.
1:
19
05
11
1,
1-
1%
1$
#591909
1!
1.
0:
09
15
01
0,
0-
0%
0$
#594375
0!
0.
1:
19
05
11
1,
1-
1%
1$
#598575
1!
1.
0:
09
15
01
0,
0-
0%
0$
#600000
0"
0/
#601041
0!
0.
1:
19
05
11
1,
1-
1%
1$
#605241
1!
1.
0:
09
15
01
0,
0-
0%
0$
#607707
0!
0.
1:
19
05
11
1,
1-
1%
1$
#613645
1!
1.
0:
09
15
01
0,
0-
0%
0$
#615000
1"
1/
16
02
19
17
05
1,
1$
#617445
0!
0.
09
07
13
0,
0$
#620000
1!
1.
19
17
03
1,
1$
#624434
0!
0.
09
07
13
0,
0$
#629034
1!
1.
19
17
03
1,
1$
#630000
0"
0/
#630453
0!
0.
09
07
13
0,
0$
#637253
1!
1.
19
17
03
1,
1$
#640453
0!
0.
09
07
13
0,
0$
#645000
1"
1/
06
14
19
03
11
1,
1$
#647253
1!
1.
09
15
01
0,
0$
#650533
0!
0.
19
05
11
1,
1$
#653533
1!
1.
09
15
01
0,
0$
#655533
0!
0.
19
05
11
1,
1$
#658533
1!
1.
09
15
01
0,
0$
#660000
0"
0/
#660174
0!
0.
19
05
11
1,
1$
#662308
1!
1.
09
15
01
0,
0$
#663507
0!
0.
19
05
11
1,
1$
#665641
1!
1.
09
15
01
0,
0$
#666840
0!
0.
19
05
11
1,
1$
#668974
1!
1.
09
15
01
0,
0$
#670000
0!
0.
19
05
11
1,
1$
#671884
1!
1.
09
15
01
0,
0$
#673634
0!
0.
19
05
11
1,
1$
#675000
1"
1/
04
12
1:
1-
1%
#676884
1!
1.
0:
09
15
01
0,
0-
0%
0$
#678634
0!
0.
1:
19
05
11
1,
1-
1%
1$
#682070
1!
1.
0:
09
15
01
0,
0-
0%
0$
#686170
0!
0.
1:
19
05
11
1,
1-
1%
1$
#690000
0"
0/
#691352
1!
1.
0:
09
15
01
0,
0-
0%
0$
#693551
0!
0.
1:
19
05
11
1,
1-
1%
1$
#698018
1!
1.
0:
09
15
01
0,
0-
0%
0$
#700217
0!
0.
1:
19
05
11
1,
1-
1%
1$
#704684
1!
1.
0:
09
15
01
0,
0-
0%
0$
#705000
1"
1/
16
02
19
17
05
1,
1$
#706883
0!
0.
09
07
13
0,
0$
#713567
1!
1.
19
17
03
1,
1$
#720000
0"
0/
#722567
0!
0.
09
07
13
0,
0$
#731547
1!
1.
19
17
03
1,
1$
#735000
1"
1/
18
06
1:
1-
1%
#735013
0!
0.
0:
09
07
13
0,
0-
0%
0$
#738213
1!
1.
1:
19
17
03
1,
1-
1%
1$
#741679
0!
0.
0:
09
07
13
0,
0-
0%
0$
#744879
1!
1.
1:
19
17
03
1,
1-
1%
1$
#748345
0!
0.
0:
09
07
13
0,
0-
0%
0$
#750000
0"
1!
1.
0/
1:
19
17
03
1,
1-
1%
1$
#752549
0!
0.
0:
09
07
13
0,
0-
0%
0$
#755549
1!
1.
1:
19
17
03
1,
1-
1%
1$
#759215
0!
0.
0:
09
07
13
0,
0-
0%
0$
#762215
1!
1.
1:
19
17
03
1,
1-
1%
1$
#765000
1"
1/
#765881
0!
0.
0:
09
07
13
0,
0-
0%
0$
#768881
1!
1.
1:
19
17
03
1,
1-
1%
1$
#770000
0!
0.
0:
09
07
13
0,
0-
0%
0$
#771662
1!
1.
1:
19
17
03
1,
1-
1%
1$
#779462
0!
0.
0:
09
07
13
0,
0-
0%
0$
#780000
0"
0/
#790000
1!
1.
1:
19
17
03
1,
1-
1%
1$
#795000
1"
1/
#800794
0!
0.
0:
09
07
13
0,
0-
0%
0$
#809794
1!
1.
1:
19
17
03
1,
1-
1%
1$
#810000
0"
0!
0.
0/
0:
09
07
13
0,
0-
0%
0$
#811584
1!
1.
1:
19
17
03
1,
1-
1%
1$
#812650
0!
0.
0:
09
07
13
0,
0-
0%
0$
#814917
1!
1.
1:
19
17
03
1,
1-
1%
1$
#815983
0!
0.
0:
09
07
13
0,
0-
0%
0$
#818250
1!
1.
1:
19
17
03
1,
1-
1%
1$
#819316
0!
0.
0:
09
07
13
0,
0-
0%
0$
#820000
1!
1.
1:
19
17
03
1,
1-
1%
1$
#820685
0!
0.
0:
09
07
13
0,
0-
0%
0$
#825000
1"
1/
08
14
19
03
11
1,
1$
#825018
1!
1.
09
15
01
0,
0$
#827351
0!
0.
19
05
11
1,
1$
#831684
1!
1.
09
15
01
0,
0$
#834017
0!
0.
19
05
11
1,
1$
#838350
1!
1.
09
15
01
0,
0$
#840000
0"
0!
0.
0/
19
05
11
1,
1$
#840806
1!
1.
09
15
01
0,
0$
#843539
0!
0.
19
05
11
1,
1$
#847472
1!
1.
09
15
01
0,
0$
#850205
0!
0.
19
05
11
1,
1$
#854138
1!
1.
09
15
01
0,
0$
#855000
1"
1/
16
04
19
17
05
1,
1$
#856871
0!
0.
09
07
13
0,
0$
#860000
1!
1.
19
17
03
1,
1$
#861591
0!
0.
09
07
13
0,
0$
#867891
1!
1.
19
17
03
1,
1$
#870000
0"
0/
#872866
0!
0.
09
07
13
0,
0$
#876399
1!
1.
19
17
03
1,
1$
#879532
0!
0.
09
07
13
0,
0$
#883065
1!
1.
19
17
03
1,
1$
#885000
1"
1/
18
06
1:
1-
1%
#886198
0!
0.
0:
09
07
13
0,
0-
0%
0$
#889731
1!
1.
1:
19
17
03
1,
1-
1%
1$
#890330
0!
0.
0:
09
07
13
0,
0-
0%
0$
#892464
1!
1.
1:
19
17
03
1,
1-
1%
1$
#893663
0!
0.
0:
09
07
13
0,
0-
0%
0$
#895797
1!
1.
1:
19
17
03
1,
1-
1%
1$
#896996
0!
0.
0:
09
07
13
0,
0-
0%
0$
#899130
1!
1.
1:
19
17
03
1,
1-
1%
1$
#900000
0"
0!
0.
0/
0:
09
07
13
0,
0-
0%
0$
#901281
1!
1.
1:
19
17
03
1,
1-
1%
1$
#905781
0!
0.
0:
09
07
13
0,
0-
0%
0$
#913317
1!
1.
1:
19
17
03
1,
1-
1%
1$
#915000
1"
1/
#917817
0!
0.
0:
09
07
13
0,
0-
0%
0$
#923317
1!
1.
1:
19
17
03
1,
1-
1%
1$
#927817
0!
0.
0:
09
07
13
0,
0-
0%
0$
#930000
0"
1!
1.
0/
1:
19
17
03
1,
1-
1%
1$
#930286
0!
0.
0:
09
07
13
0,
0-
0%
0$
#933386
1!
1.
1:
19
17
03
1,
1-
1%
1$
#935286
0!
0.
0:
09
07
13
0,
0-
0%
0$
#938386
1!
1.
1:
19
17
03
1,
1-
1%
1$
#940000
0!
0.
0:
09
07
13
0,
0-
0%
0$
#940636
1!
1.
1:
19
17
03
1,
1-
1%
1$
#945000
1"
1/
#949236
0!
0.
0:
09
07
13
0,
0-
0%
0$
#950000
1#
10
03
#960000
0"
1!
1.
0/
1:
19
1,
1-
1%
1$
#960841
0!
0.
0:
09
0,
0-
0%
0$
#962608
1!
1.
1:
19
1,
1-
1%
1$
#964174
0!
0.
0:
09
0,
0-
0%
0$
#965941
1!
1.
1:
19
1,
1-
1%
1$
#967507
0!
0.
0:
09
0,
0-
0%
0$
#969274
1!
1.
1:
19
1,
1-
1%
1$
#970015
0!
0.
0:
09
0,
0-
0%
0$
#972182
1!
1.
1:
19
1,
1-
1%
1$
#973348
0!
0.
0:
09
0,
0-
0%
0$
#975000
1"
1/
08
#975515
1!
1.
#976681
0!
0.
#978848
1!
1.
#981094
0!
0.
#987594
1!
1.
#990000
0"
0/
#991094
0!
0.
#997594
1!
1.
