tristate/simulation/qsim/tristate.msim.vcd
$comment
	File created using the following command:
		vcd file tristate.msim.vcd -direction
$end
$date
	Tue Mar 29 11:17:21 2022
$end
$version
	ModelSim Version 2020.1
$end
$timescale
	1ps
$end

$scope module tristate_vlg_vec_tst $end
$var reg 4 ! a [3:0] $end
$var reg 1 " s $end
$var wire 1 # y [3] $end
$var wire 1 $ y [2] $end
$var wire 1 % y [1] $end
$var wire 1 & y [0] $end

$scope module i1 $end
$var wire 1 ' gnd $end
$var wire 1 ( vcc $end
$var wire 1 ) unknown $end
$var tri1 1 * devclrn $end
$var tri1 1 + devpor $end
$var tri1 1 , devoe $end
$var wire 1 - y[0]~output_o $end
$var wire 1 . y[1]~output_o $end
$var wire 1 / y[2]~output_o $end
$var wire 1 0 y[3]~output_o $end
$var wire 1 1 a[0]~input_o $end
$var wire 1 2 s~input_o $end
$var wire 1 3 a[1]~input_o $end
$var wire 1 4 a[2]~input_o $end
$var wire 1 5 a[3]~input_o $end
$upscope $end
$upscope $end
$enddefinitions $end
#0
$dumpvars
b1010 !
0"
z&
z%
z$
z#
0'
1(
x)
1*
1+
1,
z-
z.
z/
z0
01
02
13
04
15
$end
#100000
1"
12
0-
1.
0/
10
1#
0$
1%
0&
#200000
0"
02
z-
z.
z/
z0
z#
z$
z%
z&
#300000
1"
12
0-
1.
0/
10
1#
0$
1%
0&
#400000
0"
02
z-
z.
z/
z0
z#
z$
z%
z&
#500000
1"
12
0-
1.
0/
10
1#
0$
1%
0&
#600000
0"
02
z-
z.
z/
z0
z#
z$
z%
z&
#700000
1"
12
0-
1.
0/
10
1#
0$
1%
0&
#800000
0"
02
z-
z.
z/
z0
z#
z$
z%
z&
#900000
1"
12
0-
1.
0/
10
1#
0$
1%
0&
