shifreg/simulation/qsim/shifreg.msim.vcd
$comment
	File created using the following command:
		vcd file shifreg.msim.vcd -direction
$end
$date
	Fri Apr 29 11:33:43 2022
$end
$version
	ModelSim Version 2020.1
$end
$timescale
	1ps
$end

$scope module shifreg_vlg_vec_tst $end
$var reg 1 ! clk $end
$var reg 4 " d [3:0] $end
$var reg 1 # load $end
$var reg 1 $ reset $end
$var reg 1 % sin $end
$var wire 1 & q [3] $end
$var wire 1 ' q [2] $end
$var wire 1 ( q [1] $end
$var wire 1 ) q [0] $end
$var wire 1 * sout $end

$scope module i1 $end
$var wire 1 + gnd $end
$var wire 1 , vcc $end
$var wire 1 - unknown $end
$var tri1 1 . devclrn $end
$var tri1 1 / devpor $end
$var tri1 1 0 devoe $end
$var wire 1 1 q[0]~output_o $end
$var wire 1 2 q[1]~output_o $end
$var wire 1 3 q[2]~output_o $end
$var wire 1 4 q[3]~output_o $end
$var wire 1 5 sout~output_o $end
$var wire 1 6 clk~input_o $end
$var wire 1 7 reset~input_o $end
$var wire 1 8 load~input_o $end
$var wire 1 9 d[0]~input_o $end
$var wire 1 : sin~input_o $end
$var wire 1 ; q~0_combout $end
$var wire 1 < q[0]~reg0_q $end
$var wire 1 = d[1]~input_o $end
$var wire 1 > q~1_combout $end
$var wire 1 ? q[1]~reg0_q $end
$var wire 1 @ d[2]~input_o $end
$var wire 1 A q~2_combout $end
$var wire 1 B q[2]~reg0_q $end
$var wire 1 C d[3]~input_o $end
$var wire 1 D q~3_combout $end
$var wire 1 E q[3]~reg0_q $end
$upscope $end
$upscope $end
$enddefinitions $end
#0
$dumpvars
0!
b1010 "
0#
1$
0%
0)
0(
0'
0&
0*
0+
1,
x-
1.
1/
10
01
02
03
04
05
06
17
08
09
0:
0;
0<
1=
0>
0?
0@
0A
0B
1C
0D
0E
$end
#10000
1!
16
#20000
1%
0!
1:
06
#30000
0%
1!
0:
16
#40000
0!
06
#50000
1%
1!
1:
16
#60000
0%
0!
0:
06
#70000
1!
16
#80000
1#
1%
0!
18
1:
06
#90000
1!
16
#100000
0$
0#
0!
07
08
06
1;
#110000
0%
1!
0:
16
0;
1<
11
1)
1>
#120000
1%
0!
1:
06
1;
#130000
1!
16
1?
12
1(
1A
#140000
0!
06
#150000
1!
16
1B
13
1'
1D
#160000
0!
06
#170000
1!
16
1E
14
15
1*
1&
#180000
0%
0!
0:
06
0;
#190000
1!
16
0<
01
0)
0>
#200000
1%
0!
1:
06
1;
#210000
1!
16
0?
1<
11
02
0(
1)
1>
0A
#220000
0!
06
#230000
1!
16
0B
1?
12
03
0'
1(
1A
0D
#240000
0%
0!
0:
06
0;
#250000
1%
1!
1:
16
1;
0E
1B
0<
01
13
04
05
0*
0&
1'
0)
0>
1D
#260000
0!
06
#270000
0%
1!
0:
16
0;
1E
0?
1<
11
02
14
15
1*
1&
0(
1)
1>
0A
#280000
1#
0!
18
06
#290000
1%
1!
1:
16
0B
1?
0<
01
12
03
0'
1(
0)
#300000
0#
0%
0!
08
0:
06
0D
1A
0>
#310000
1%
1!
1:
16
1;
0E
1B
0?
02
13
04
05
0*
0&
1'
0(
0A
1D
#320000
0%
0!
0:
06
0;
#330000
1%
1!
1:
16
1;
1E
0B
03
14
15
1*
1&
0'
0D
#340000
0%
0!
0:
06
0;
#350000
1%
1!
1:
16
1;
0E
04
05
0*
0&
#360000
0!
06
#370000
1!
16
1<
11
1)
1>
#380000
0%
0!
0:
06
0;
#390000
1%
1!
1:
16
1;
1?
0<
01
12
1(
0)
0>
1A
#400000
0%
0!
0:
06
0;
#410000
1!
16
1B
0?
02
13
1'
0(
0A
1D
#420000
0!
06
#430000
1%
1!
1:
16
1;
1E
0B
03
14
15
1*
1&
0'
0D
#440000
0!
06
#450000
0%
1!
0:
16
0;
0E
1<
11
04
05
0*
0&
1)
1>
#460000
0!
06
#470000
1%
1!
1:
16
1;
1?
0<
01
12
1(
0)
0>
1A
#480000
1#
0%
0!
18
0:
06
0;
1D
0A
1>
#490000
1%
1!
1:
16
1E
14
15
1*
1&
#500000
0#
0!
08
06
0D
1A
0>
1;
#510000
0%
1!
0:
16
0;
0E
1B
0?
1<
11
02
13
04
05
0*
0&
1'
0(
1)
1>
0A
1D
#520000
1%
0!
1:
06
1;
#530000
0%
1!
0:
16
0;
1E
0B
1?
12
03
14
15
1*
1&
0'
1(
1A
0D
#540000
1%
0!
1:
06
1;
#550000
0%
1!
0:
16
0;
0E
1B
13
04
05
0*
0&
1'
1D
#560000
1%
0!
1:
06
1;
#570000
0%
1!
0:
16
0;
1E
14
15
1*
1&
#580000
0!
06
#590000
1%
1!
1:
16
1;
0<
01
0)
0>
#600000
0!
06
#610000
1!
16
0?
1<
11
02
0(
1)
1>
0A
#620000
0%
0!
0:
06
0;
#630000
1!
16
0B
1?
0<
01
12
03
0'
1(
0)
0>
1A
0D
#640000
0!
06
#650000
1!
16
0E
1B
0?
02
13
04
05
0*
0&
1'
0(
0A
1D
#660000
1%
0!
1:
06
1;
#670000
1!
16
1E
0B
1<
11
03
14
15
1*
1&
0'
1)
1>
0D
#680000
1#
0!
18
06
1D
0;
#690000
0%
1!
0:
16
1?
0<
01
12
1(
0)
#700000
0#
1%
0!
08
1:
06
1;
0D
1A
0>
#710000
1!
16
0E
1B
0?
1<
11
02
13
04
05
0*
0&
1'
0(
1)
1>
0A
1D
#720000
0!
06
#730000
0%
1!
0:
16
0;
1E
0B
1?
12
03
14
15
1*
1&
0'
1(
1A
0D
#740000
0!
06
#750000
1%
1!
1:
16
1;
0E
1B
0<
01
13
04
05
0*
0&
1'
0)
0>
1D
#760000
0%
0!
0:
06
0;
#770000
1%
1!
1:
16
1;
1E
0?
02
14
15
1*
1&
0(
0A
#780000
0%
0!
0:
06
0;
#790000
1%
1!
1:
16
1;
0B
03
0'
0D
#800000
0%
0!
0:
06
0;
#810000
1%
1!
1:
16
1;
0E
04
05
0*
0&
#820000
0%
0!
0:
06
0;
#830000
1!
16
#840000
0!
06
#850000
1%
1!
1:
16
1;
#860000
0!
06
#870000
1!
16
1<
11
1)
1>
#880000
1#
0%
0!
18
0:
06
0;
1D
#890000
1!
16
1E
1?
0<
01
12
14
15
1*
1&
1(
0)
#900000
0#
0!
08
06
0D
1A
0>
#910000
1!
16
0E
1B
0?
02
13
04
05
0*
0&
1'
0(
0A
1D
#920000
0!
06
#930000
1%
1!
1:
16
1;
1E
0B
03
14
15
1*
1&
0'
0D
#940000
0%
0!
0:
06
0;
#950000
1%
1!
1:
16
1;
0E
04
05
0*
0&
#960000
0%
0!
0:
06
0;
#970000
1!
16
#980000
0!
06
#990000
1%
1!
1:
16
1;
