adder/simulation/qsim/adder.msim.vcd
$comment
	File created using the following command:
		vcd file adder.msim.vcd -direction
$end
$date
	Fri Mar 25 11:33:43 2022
$end
$version
	ModelSim Version 2020.1
$end
$timescale
	1ps
$end

$scope module adder_vlg_vec_tst $end
$var reg 32 ! a [31:0] $end
$var reg 32 " b [31:0] $end
$var wire 1 # y [31] $end
$var wire 1 $ y [30] $end
$var wire 1 % y [29] $end
$var wire 1 & y [28] $end
$var wire 1 ' y [27] $end
$var wire 1 ( y [26] $end
$var wire 1 ) y [25] $end
$var wire 1 * y [24] $end
$var wire 1 + y [23] $end
$var wire 1 , y [22] $end
$var wire 1 - y [21] $end
$var wire 1 . y [20] $end
$var wire 1 / y [19] $end
$var wire 1 0 y [18] $end
$var wire 1 1 y [17] $end
$var wire 1 2 y [16] $end
$var wire 1 3 y [15] $end
$var wire 1 4 y [14] $end
$var wire 1 5 y [13] $end
$var wire 1 6 y [12] $end
$var wire 1 7 y [11] $end
$var wire 1 8 y [10] $end
$var wire 1 9 y [9] $end
$var wire 1 : y [8] $end
$var wire 1 ; y [7] $end
$var wire 1 < y [6] $end
$var wire 1 = y [5] $end
$var wire 1 > y [4] $end
$var wire 1 ? y [3] $end
$var wire 1 @ y [2] $end
$var wire 1 A y [1] $end
$var wire 1 B y [0] $end

$scope module i1 $end
$var wire 1 C gnd $end
$var wire 1 D vcc $end
$var wire 1 E unknown $end
$var tri1 1 F devclrn $end
$var tri1 1 G devpor $end
$var tri1 1 H devoe $end
$var wire 1 I y[0]~output_o $end
$var wire 1 J y[1]~output_o $end
$var wire 1 K y[2]~output_o $end
$var wire 1 L y[3]~output_o $end
$var wire 1 M y[4]~output_o $end
$var wire 1 N y[5]~output_o $end
$var wire 1 O y[6]~output_o $end
$var wire 1 P y[7]~output_o $end
$var wire 1 Q y[8]~output_o $end
$var wire 1 R y[9]~output_o $end
$var wire 1 S y[10]~output_o $end
$var wire 1 T y[11]~output_o $end
$var wire 1 U y[12]~output_o $end
$var wire 1 V y[13]~output_o $end
$var wire 1 W y[14]~output_o $end
$var wire 1 X y[15]~output_o $end
$var wire 1 Y y[16]~output_o $end
$var wire 1 Z y[17]~output_o $end
$var wire 1 [ y[18]~output_o $end
$var wire 1 \ y[19]~output_o $end
$var wire 1 ] y[20]~output_o $end
$var wire 1 ^ y[21]~output_o $end
$var wire 1 _ y[22]~output_o $end
$var wire 1 ` y[23]~output_o $end
$var wire 1 a y[24]~output_o $end
$var wire 1 b y[25]~output_o $end
$var wire 1 c y[26]~output_o $end
$var wire 1 d y[27]~output_o $end
$var wire 1 e y[28]~output_o $end
$var wire 1 f y[29]~output_o $end
$var wire 1 g y[30]~output_o $end
$var wire 1 h y[31]~output_o $end
$var wire 1 i b[0]~input_o $end
$var wire 1 j a[0]~input_o $end
$var wire 1 k Add0~1_sumout $end
$var wire 1 l b[1]~input_o $end
$var wire 1 m a[1]~input_o $end
$var wire 1 n Add0~2 $end
$var wire 1 o Add0~5_sumout $end
$var wire 1 p b[2]~input_o $end
$var wire 1 q a[2]~input_o $end
$var wire 1 r Add0~6 $end
$var wire 1 s Add0~9_sumout $end
$var wire 1 t b[3]~input_o $end
$var wire 1 u a[3]~input_o $end
$var wire 1 v Add0~10 $end
$var wire 1 w Add0~13_sumout $end
$var wire 1 x b[4]~input_o $end
$var wire 1 y a[4]~input_o $end
$var wire 1 z Add0~14 $end
$var wire 1 { Add0~17_sumout $end
$var wire 1 | b[5]~input_o $end
$var wire 1 } a[5]~input_o $end
$var wire 1 ~ Add0~18 $end
$var wire 1 !! Add0~21_sumout $end
$var wire 1 "! b[6]~input_o $end
$var wire 1 #! a[6]~input_o $end
$var wire 1 $! Add0~22 $end
$var wire 1 %! Add0~25_sumout $end
$var wire 1 &! b[7]~input_o $end
$var wire 1 '! a[7]~input_o $end
$var wire 1 (! Add0~26 $end
$var wire 1 )! Add0~29_sumout $end
$var wire 1 *! b[8]~input_o $end
$var wire 1 +! a[8]~input_o $end
$var wire 1 ,! Add0~30 $end
$var wire 1 -! Add0~33_sumout $end
$var wire 1 .! b[9]~input_o $end
$var wire 1 /! a[9]~input_o $end
$var wire 1 0! Add0~34 $end
$var wire 1 1! Add0~37_sumout $end
$var wire 1 2! b[10]~input_o $end
$var wire 1 3! a[10]~input_o $end
$var wire 1 4! Add0~38 $end
$var wire 1 5! Add0~41_sumout $end
$var wire 1 6! b[11]~input_o $end
$var wire 1 7! a[11]~input_o $end
$var wire 1 8! Add0~42 $end
$var wire 1 9! Add0~45_sumout $end
$var wire 1 :! b[12]~input_o $end
$var wire 1 ;! a[12]~input_o $end
$var wire 1 <! Add0~46 $end
$var wire 1 =! Add0~49_sumout $end
$var wire 1 >! b[13]~input_o $end
$var wire 1 ?! a[13]~input_o $end
$var wire 1 @! Add0~50 $end
$var wire 1 A! Add0~53_sumout $end
$var wire 1 B! b[14]~input_o $end
$var wire 1 C! a[14]~input_o $end
$var wire 1 D! Add0~54 $end
$var wire 1 E! Add0~57_sumout $end
$var wire 1 F! b[15]~input_o $end
$var wire 1 G! a[15]~input_o $end
$var wire 1 H! Add0~58 $end
$var wire 1 I! Add0~61_sumout $end
$var wire 1 J! b[16]~input_o $end
$var wire 1 K! a[16]~input_o $end
$var wire 1 L! Add0~62 $end
$var wire 1 M! Add0~65_sumout $end
$var wire 1 N! b[17]~input_o $end
$var wire 1 O! a[17]~input_o $end
$var wire 1 P! Add0~66 $end
$var wire 1 Q! Add0~69_sumout $end
$var wire 1 R! b[18]~input_o $end
$var wire 1 S! a[18]~input_o $end
$var wire 1 T! Add0~70 $end
$var wire 1 U! Add0~73_sumout $end
$var wire 1 V! b[19]~input_o $end
$var wire 1 W! a[19]~input_o $end
$var wire 1 X! Add0~74 $end
$var wire 1 Y! Add0~77_sumout $end
$var wire 1 Z! b[20]~input_o $end
$var wire 1 [! a[20]~input_o $end
$var wire 1 \! Add0~78 $end
$var wire 1 ]! Add0~81_sumout $end
$var wire 1 ^! b[21]~input_o $end
$var wire 1 _! a[21]~input_o $end
$var wire 1 `! Add0~82 $end
$var wire 1 a! Add0~85_sumout $end
$var wire 1 b! b[22]~input_o $end
$var wire 1 c! a[22]~input_o $end
$var wire 1 d! Add0~86 $end
$var wire 1 e! Add0~89_sumout $end
$var wire 1 f! b[23]~input_o $end
$var wire 1 g! a[23]~input_o $end
$var wire 1 h! Add0~90 $end
$var wire 1 i! Add0~93_sumout $end
$var wire 1 j! b[24]~input_o $end
$var wire 1 k! a[24]~input_o $end
$var wire 1 l! Add0~94 $end
$var wire 1 m! Add0~97_sumout $end
$var wire 1 n! b[25]~input_o $end
$var wire 1 o! a[25]~input_o $end
$var wire 1 p! Add0~98 $end
$var wire 1 q! Add0~101_sumout $end
$var wire 1 r! b[26]~input_o $end
$var wire 1 s! a[26]~input_o $end
$var wire 1 t! Add0~102 $end
$var wire 1 u! Add0~105_sumout $end
$var wire 1 v! b[27]~input_o $end
$var wire 1 w! a[27]~input_o $end
$var wire 1 x! Add0~106 $end
$var wire 1 y! Add0~109_sumout $end
$var wire 1 z! b[28]~input_o $end
$var wire 1 {! a[28]~input_o $end
$var wire 1 |! Add0~110 $end
$var wire 1 }! Add0~113_sumout $end
$var wire 1 ~! b[29]~input_o $end
$var wire 1 !" a[29]~input_o $end
$var wire 1 "" Add0~114 $end
$var wire 1 #" Add0~117_sumout $end
$var wire 1 $" b[30]~input_o $end
$var wire 1 %" a[30]~input_o $end
$var wire 1 &" Add0~118 $end
$var wire 1 '" Add0~121_sumout $end
$var wire 1 (" b[31]~input_o $end
$var wire 1 )" a[31]~input_o $end
$var wire 1 *" Add0~122 $end
$var wire 1 +" Add0~125_sumout $end
$upscope $end
$upscope $end
$enddefinitions $end
#0
$dumpvars
b0 !
b10010010001010101110111100011011 "
1B
1A
0@
1?
1>
0=
0<
0;
1:
19
18
17
06
15
14
13
02
11
00
1/
0.
1-
0,
0+
0*
1)
0(
0'
1&
0%
0$
1#
0C
1D
xE
1F
1G
1H
1I
1J
0K
1L
1M
0N
0O
0P
1Q
1R
1S
1T
0U
1V
1W
1X
0Y
1Z
0[
1\
0]
1^
0_
0`
0a
1b
0c
0d
1e
0f
0g
1h
1i
0j
1k
1l
0m
0n
1o
0p
0q
0r
0s
1t
0u
0v
1w
1x
0y
0z
1{
0|
0}
0~
0!!
0"!
0#!
0$!
0%!
0&!
0'!
0(!
0)!
1*!
0+!
0,!
1-!
1.!
0/!
00!
11!
12!
03!
04!
15!
16!
07!
08!
19!
0:!
0;!
0<!
0=!
1>!
0?!
0@!
1A!
1B!
0C!
0D!
1E!
1F!
0G!
0H!
1I!
0J!
0K!
0L!
0M!
1N!
0O!
0P!
1Q!
0R!
0S!
0T!
0U!
1V!
0W!
0X!
1Y!
0Z!
0[!
0\!
0]!
1^!
0_!
0`!
1a!
0b!
0c!
0d!
0e!
0f!
0g!
0h!
0i!
0j!
0k!
0l!
0m!
1n!
0o!
0p!
1q!
0r!
0s!
0t!
0u!
0v!
0w!
0x!
0y!
1z!
0{!
0|!
1}!
0~!
0!"
0""
0#"
0$"
0%"
0&"
0'"
1("
0)"
0*"
1+"
$end
#80000
b1 !
b10010001010101110111100011011 "
b1010010001010101110111100011011 "
b1110010001010101110111100011011 "
b1111010001010101110111100011011 "
b1111110001010101110111100011011 "
b1111110011010101110111100011011 "
b1111110011110101110111100011011 "
b1111110011100101110111100011011 "
b1111110011100111110111100011011 "
b1111110011100111100111100011011 "
b1111110011100111100111110011011 "
b1111110011100111100111111011011 "
b1111110011100111100111111001011 "
b1111110011100111100111111001111 "
b1111110011100111100111111001110 "
0i
1p
0x
1"!
1&!
0>!
1J!
0V!
1Z!
1b!
1r!
1v!
1~!
1$"
0("
1j
0+"
1'"
1#"
1y!
1u!
1e!
1]!
0Y!
1M!
0A!
1)!
1%!
0{
1s
1K
0M
1O
1P
0V
1Y
0\
1]
1_
1c
1d
1f
1g
0h
0#
1$
1%
1'
1(
1,
1.
0/
12
05
1;
1<
0>
1@
#160000
b11 !
b1101110011100111100111111001110 "
b1101111011100111100111111001110 "
b1101111010100111100111111001110 "
b1101111010101111100111111001110 "
b1101111010101111000111111001110 "
b1101111010101111000110111001110 "
b1101111010101111000110011001110 "
b1101111010101111000110011000110 "
b1101111010101111000110011000100 "
b10 !
b11101111010101111000110011000100 "
b10101111010101111000110011000100 "
b10100111010101111000110011000100 "
b10100111000101111000110011000100 "
b10100111000101101000110011000100 "
b10100111000101101010110011000100 "
b10100111000101101010110001000100 "
b10100111000101101010110001010100 "
b10100111000101101010110001010000 "
b10100111000101101010110001010001 "
1i
0l
0p
0t
1x
0&!
0*!
0.!
1>!
0B!
0J!
1R!
0^!
0b!
1j!
0v!
0z!
0$"
1("
0j
1m
1+"
0'"
0}!
0y!
1m!
0e!
0a!
1U!
0M!
0E!
1A!
01!
0-!
0)!
1{
0w
0s
0K
0L
1M
0P
0Q
0R
1V
0W
0Y
1[
0^
0_
1a
0d
0e
0g
1h
1#
0$
0&
0'
1*
0,
0-
10
02
04
15
09
0:
0;
1>
0?
0@
#240000
b10100101000101101010110001010001 "
b10100101000101001010110001010001 "
b10100101000101001011110001010001 "
b10100101000101001011010001010001 "
b10100001000101001011010001010001 "
b10100001000101001011010000010001 "
b10110001000101001011010000010001 "
b10110000000101001011010000010001 "
b10110000001101001011010000010001 "
b10110000001100001011010000010001 "
b10110000001100001011011000010001 "
b10110000001100001011011100010001 "
b10110000001100001011011100011001 "
b10110000001100001011011100011011 "
b11 !
b110000001100001011011100011011 "
b1110000001100001011011100011011 "
b1110000011100001011011100011011 "
b1110000011100011011011100011011 "
b1110000011100011001011100011011 "
b1110000011100011001011100001011 "
b1110000011100011001011100001111 "
b1110000011100011001011100001110 "
1j
0i
1l
1p
1t
0x
0"!
1*!
1.!
06!
1:!
0>!
1J!
0N!
0R!
1^!
1b!
0j!
0n!
0r!
1z!
1$"
0("
1r
0+"
1'"
1}!
0u!
0q!
0m!
1e!
1a!
0U!
0Q!
1M!
0A!
1=!
09!
11!
1-!
0%!
0{
1w
1s
0o
0J
1K
1L
0M
0O
1Q
1R
0T
1U
0V
1Y
0Z
0[
1^
1_
0a
0b
0c
1e
1g
0h
1v
0#
1$
1&
0(
0)
0*
1,
1-
00
01
12
05
16
07
19
1:
0<
0>
1?
1@
0A
0s
0K
1z
0@
0w
0L
0?
1{
1M
1>
#320000
b111 !
b1110000111100011001011100001110 "
b1110000111100010001011100001110 "
b1110000111000010001011100001110 "
b101 !
b1110010111000010001011100001110 "
b1110010111000010000011100001110 "
b1110010111000010000111100001110 "
b1110010111000010000111101001110 "
b1110010111001010000111101001110 "
b1110010111001010000111001001110 "
b100 !
b11110010111001010000111001001110 "
b10110010111001010000111001001110 "
b10110010111001010000111001011110 "
b10110010111001010000111001011111 "
1i
1x
1"!
0*!
16!
0:!
0F!
1R!
0Z!
1f!
1n!
0$"
1("
0j
0m
1q
0r
1~
1s
1o
1+"
0'"
1q!
1i!
0]!
1U!
0I!
0=!
19!
0-!
1%!
0{
0M
1O
0Q
1T
0U
0X
1[
0]
1`
1b
0g
1h
1J
1K
1@
1A
1#
0$
1)
1+
0.
10
03
06
17
0:
1<
0>
0s
1!!
1N
0K
0@
1=
#400000
b10110010111001010000111001111111 "
b10010010111001010000111001111111 "
b10010010111011010000111001111111 "
b10010010111011010100111001111111 "
b10010010111011010100110001111111 "
b10010010111011010100110001110111 "
b10010010101011010100110001110111 "
b10010010101011010100110001110011 "
b10010010001011010100110001110011 "
b10010010001011011100110001110011 "
b10010010001111011100110001110011 "
b10010010001111011101110001110011 "
b10010010001111011101010001110011 "
b10010010001111011101010000110011 "
b10010010001111011101010100110011 "
b101 !
b10010001111011101010100110011 "
b10010001111011101010100100011 "
1j
0p
0t
0x
1|
0"!
1*!
0.!
06!
1:!
1B!
1F!
1V!
1Z!
0b!
0f!
0~!
0("
1$!
0~
0z
0v
1n
0+"
0#"
0i!
0e!
1]!
1Y!
1I!
1E!
1=!
09!
01!
1-!
0%!
0!!
1{
1w
1s
0k
0I
1K
1L
1M
0N
0O
1Q
0R
0T
1U
1W
1X
1\
1]
0_
0`
0f
0h
0$!
1r
0#
0%
0+
0,
1.
1/
13
14
16
07
09
1:
0<
0=
1>
1?
1@
0B
1%!
1!!
0{
0w
0o
0J
0L
0M
1N
1O
1v
1<
1=
0>
0?
0A
0%!
0s
0K
0O
0<
0@
1w
1L
1?
#480000
b10010001111111101010100100011 "
b10001111111101010100100011 "
b10000111111101010100100011 "
b10000111111111010100100011 "
b111 !
b1000010000111111111010100100011 "
b1100010000111111111010100100011 "
b1100010000111111011010100100011 "
b1100010000111111011010100101011 "
b1100010000111111011010100101111 "
b1100010000111110011010100101111 "
b1100010000011110011010100101111 "
b1100010000011110011110100101111 "
b1100010000011110011110101101111 "
b110 !
b11100010000011110011110101101111 "
0j
1m
1p
1t
1"!
16!
1>!
0B!
0F!
1N!
0Z!
0^!
0z!
1~!
1$"
1("
1z
0n
1+"
1'"
1#"
0}!
0a!
0]!
1Q!
0I!
0E!
1A!
19!
1%!
0w
1s
1o
1k
1I
1J
1K
0L
1O
1T
1V
0W
0X
1Z
0]
0^
0e
1f
1g
1h
1#
1$
1%
0&
0-
0.
11
03
04
15
17
1<
0?
1@
1A
1B
1{
0o
0J
1M
1>
0A
#560000
b11100010000011110011100101101111 "
b11100010000011110011100111101111 "
b11100011000011110011100111101111 "
b11100011000011110011100111101101 "
b11100011000011100011100111101101 "
b11100011000010100011100111101101 "
b11100011000010100011100111101100 "
b11100011000010100011100111001100 "
b11100011000010100011101111001100 "
b11100011000010100010101111001100 "
b11100011000010000010101111001100 "
b11100011001010000010101111001100 "
b11100011001010000110101111001100 "
b11100011001010000110101111001000 "
b11100011001010001110101111001000 "
b11100011001110001110101111001000 "
b11100011001110001110001111001000 "
b111 !
1j
0i
0l
0p
0|
1&!
1.!
02!
06!
0:!
1B!
1F!
0J!
0N!
0R!
1Z!
1^!
1j!
0r
1m!
1a!
1]!
0U!
0Q!
0M!
1I!
1E!
0=!
09!
05!
11!
1)!
0!!
0s
1o
1J
0K
0N
1P
1R
0S
0T
0U
1W
1X
0Y
0Z
0[
1]
1^
1a
0v
1*
1-
1.
00
01
02
13
14
06
07
08
19
1;
0=
0@
1A
1s
1K
0z
1@
1w
1L
1?
0{
0M
0>
#640000
b1111 !
b1011 !
b11100011011110001110001111001000 "
b11100011111110001110001111001000 "
b11100011111110001110001011001000 "
b11100011111110001110001011011000 "
b11100011111110001100001011011000 "
b1001 !
b10100011111110001100001011011000 "
b10100011111110001100001011010000 "
b10100011111110001100001001010000 "
b10100010111110001100001001010000 "
b10100010111110001100001001010010 "
b10100010111110011100001001010010 "
b10100010111110011100001001110010 "
b10100010111110011101001001110010 "
b10100010110110011101001001110010 "
b10100010110110011001001001110010 "
b10100010110110011001001001110110 "
b10100010110110010001001001110110 "
b10100010110010010001001001110110 "
b10100010110010010001101001110110 "
b1000 !
1l
1p
0t
1x
1|
0&!
0*!
16!
1:!
0>!
0B!
0F!
1J!
0Z!
0^!
1b!
1f!
0j!
0$"
0j
0m
0q
1u
0k
0'"
0m!
1i!
1e!
0a!
0]!
1M!
0I!
0E!
0A!
1=!
19!
0-!
0)!
1!!
1{
1M
1N
0P
0Q
1T
1U
0V
0W
0X
1Y
0]
0^
1_
1`
0a
0g
0I
0B
0$
0*
1+
1,
0-
0.
12
03
04
05
16
17
0:
0;
1=
1>
#720000
b10100110110010010001101001110110 "
b10000110110010010001101001110110 "
b10000110110010010001101000110110 "
b110110010010001101000110110 "
b110110010010001101000110111 "
b110100010010001101000110111 "
b110000010010001101000110111 "
b110000010010001101100110111 "
b1000110000010010001101100110111 "
b1000110000010010001101110110111 "
b1000110000010010001101110110101 "
b1000110000010000001101110110101 "
b1000110000010000101101110110101 "
b1000110000010000101101110110001 "
b1000110000010001101101110110001 "
b1000110000110001101101110110001 "
b1000110000110001101001110110001 "
b1001 !
1j
1i
0l
0p
0"!
1&!
1*!
06!
1B!
1F!
0J!
1Z!
0b!
0f!
1r!
0~!
1$"
0("
1n
0+"
1'"
0#"
1u!
0i!
0e!
1]!
0M!
1I!
1E!
09!
1-!
1)!
0%!
0s
0o
0J
0K
0O
1P
1Q
0T
1W
1X
0Y
1]
0_
0`
1c
0f
1g
0h
0#
1$
0%
1(
0+
0,
1.
02
13
14
07
1:
1;
0<
0@
0A
1o
1J
1A
#800000
b1001110000110001101001110110001 "
b1001110000100001101001110110001 "
b1001110000100001101011110110001 "
b1001110000100001101011110100001 "
b1001110000100001111011110100001 "
b1011 !
b1001110000100001111011110000001 "
b1001110001100001111011110000001 "
b1001010001100001111011110000001 "
b1101010001100001111011110000001 "
b1101010001100001111011111000001 "
b11101010001100001111011111000001 "
b11101010001100001111011111000000 "
b11101010011100001111011111000000 "
b11101010011100001111011011000000 "
b10101010011100001111011011000000 "
b10101010011100001111011011000010 "
b10101010011100011111011011000010 "
b10101010011100011011011011000010 "
b10101010011000011011011011000010 "
b10101010011000011011111011000010 "
b1010 !
0j
1m
0i
1l
0x
0|
1"!
0*!
12!
16!
1>!
0B!
1J!
0V!
0Z!
1^!
1b!
0r!
1v!
1~!
0$"
1("
1r
0n
1+"
0'"
1#"
1y!
0u!
1e!
1a!
0]!
0Y!
1M!
0E!
1A!
19!
15!
0-!
1%!
0!!
0{
0M
0N
1O
0Q
1S
1T
1V
0W
1Y
0\
0]
1^
1_
0c
1d
1f
0g
1h
1#
0$
1%
1'
0(
1,
1-
0.
0/
12
04
15
17
18
0:
1<
0=
0>
1s
0o
0J
1K
1@
0A
#880000
b10101000011000011011111011000010 "
b10101000011001011011111011000010 "
b10101000011001111011111011000010 "
b10101000111001111011111011000010 "
b10101000111001111011111011000110 "
b10101000111011111011111011000110 "
b10101000111011111011101011000110 "
b10101000111011111011101011010110 "
b10101000111011111001101011010110 "
b10101000111011111001101011110110 "
b10101000110011111001101011110110 "
b10101100110011111001101011110110 "
b10101100110011111001101010110110 "
b10101100110011111001101110110110 "
b11101100110011111001101110110110 "
b11101100110011111001101110110100 "
b11101100110011101001101110110100 "
b1011 !
1j
0l
1p
1x
1|
0"!
1*!
02!
0>!
0J!
1N!
1R!
1V!
0^!
1f!
0n!
1r!
1$"
1v
0r
1'"
1u!
0q!
1i!
0a!
1Y!
1U!
1Q!
0M!
0A!
05!
1-!
0%!
1!!
1{
0s
1o
1k
1I
1J
0K
1M
1N
0O
1Q
0S
0V
0Y
1Z
1[
1\
0^
1`
0b
1c
1g
1z
0v
1$
1(
0)
1+
0-
1/
10
11
02
05
08
1:
0<
1=
1>
0@
1A
1B
0w
1s
1K
0L
1~
0z
0?
1@
0{
1w
1L
0M
1$!
0~
0>
1?
0!!
1{
1M
0N
0$!
0=
1>
1%!
1!!
1N
1O
1<
1=
0%!
0O
0<
#960000
b11111100110011101001101110110100 "
b11111100110011101001100110110100 "
b1111 !
b11111100110011101000100110110100 "
b11111100110011101000100100110100 "
b1101 !
b1111100110011101000100100110100 "
b1111100100011101000100100110100 "
b1111100100011101100100100110100 "
b1111100100011101100000100110100 "
b1111100100010101100000100110100 "
b1111100000010101100000100110100 "
b1111100000000101100000100110100 "
b1111100000000101100000100100100 "
b1111100000000101100000100000100 "
b1111100001000101100000100000100 "
b1111000001000101100000100000100 "
b1111000001000101100000100000110 "
b1111000001000111100000100000110 "
b1100 !
0j
0m
1q
1l
0x
0|
0&!
0.!
06!
0:!
1B!
1J!
0R!
0V!
1^!
0b!
0f!
0r!
1z!
0("
1v
0+"
1}!
0u!
0i!
0e!
1a!
0Y!
0U!
1M!
1E!
0=!
09!
01!
0)!
0!!
0{
0s
0k
0I
0K
0M
0N
0P
0R
0T
0U
1W
1Y
0[
0\
1^
0_
0`
0c
1e
0h
1z
0#
1&
0(
0+
0,
1-
0/
00
12
14
06
07
09
0;
0=
0>
0@
0B
0w
0L
0?
1{
1M
1>
