divclkn/simulation/qsim/divclkn.msim.vcd
$comment
	File created using the following command:
		vcd file divclkn.msim.vcd -direction
$end
$date
	Fri Apr 22 11:53:29 2022
$end
$version
	ModelSim Version 2020.1
$end
$timescale
	1ps
$end

$scope module divclkn_vlg_vec_tst $end
$var reg 1 ! clk $end
$var reg 1 " reset $end
$var wire 1 # clkn $end

$scope module i1 $end
$var wire 1 $ gnd $end
$var wire 1 % vcc $end
$var wire 1 & unknown $end
$var tri1 1 ' devclrn $end
$var tri1 1 ( devpor $end
$var tri1 1 ) devoe $end
$var wire 1 * clkn~output_o $end
$var wire 1 + clk~input_o $end
$var wire 1 , Add0~49_sumout $end
$var wire 1 - reset~input_o $end
$var wire 1 . Add0~50 $end
$var wire 1 / Add0~45_sumout $end
$var wire 1 0 Add0~46 $end
$var wire 1 1 Add0~25_sumout $end
$var wire 1 2 Add0~26 $end
$var wire 1 3 Add0~29_sumout $end
$var wire 1 4 Add0~30 $end
$var wire 1 5 Add0~21_sumout $end
$var wire 1 6 Add0~22 $end
$var wire 1 7 Add0~17_sumout $end
$var wire 1 8 Add0~18 $end
$var wire 1 9 Add0~41_sumout $end
$var wire 1 : Add0~42 $end
$var wire 1 ; Add0~37_sumout $end
$var wire 1 < Add0~38 $end
$var wire 1 = Add0~33_sumout $end
$var wire 1 > Add0~34 $end
$var wire 1 ? Add0~13_sumout $end
$var wire 1 @ Add0~14 $end
$var wire 1 A Add0~9_sumout $end
$var wire 1 B Add0~10 $end
$var wire 1 C Add0~5_sumout $end
$var wire 1 D Add0~6 $end
$var wire 1 E Add0~1_sumout $end
$var wire 1 F LessThan0~0_combout $end
$var wire 1 G LessThan0~1_combout $end
$var wire 1 H LessThan0~2_combout $end
$var wire 1 I count [12] $end
$var wire 1 J count [11] $end
$var wire 1 K count [10] $end
$var wire 1 L count [9] $end
$var wire 1 M count [8] $end
$var wire 1 N count [7] $end
$var wire 1 O count [6] $end
$var wire 1 P count [5] $end
$var wire 1 Q count [4] $end
$var wire 1 R count [3] $end
$var wire 1 S count [2] $end
$var wire 1 T count [1] $end
$var wire 1 U count [0] $end
$upscope $end
$upscope $end
$enddefinitions $end
#0
$dumpvars
0!
1"
0#
0$
1%
x&
1'
1(
1)
0*
0+
1,
1-
0.
0/
00
01
02
03
04
05
06
07
08
09
0:
0;
0<
0=
0>
0?
0@
0A
0B
0C
0D
0E
1F
0G
1H
0U
0T
0S
0R
0Q
0P
0O
0N
0M
0L
0K
0J
0I
$end
#10000
1!
1+
#20000
0!
0+
#30000
1!
1+
#40000
0!
0+
#50000
1!
1+
#60000
0!
0+
#70000
1!
1+
#80000
0!
0+
#90000
1!
1+
#100000
0!
0+
#110000
1!
1+
#120000
0!
0+
#130000
1!
1+
#140000
0!
0+
#150000
1!
1+
#160000
0!
0+
#170000
1!
1+
#180000
0!
0+
#190000
1!
1+
#200000
0!
0+
#210000
1!
1+
#220000
0!
0+
#230000
1!
1+
#240000
0!
0+
#250000
1!
1+
#260000
0!
0+
#270000
1!
1+
#280000
0!
0+
#290000
1!
1+
#300000
0!
0+
#310000
1!
1+
#320000
0!
0+
#330000
1!
1+
#340000
0!
0+
#350000
1!
1+
#360000
0!
0+
#370000
1!
1+
#380000
0!
0+
#390000
1!
1+
#400000
0!
0+
#410000
1!
1+
#420000
0!
0+
#430000
1!
1+
#440000
0!
0+
#450000
1!
1+
#460000
0!
0+
#470000
1!
1+
#480000
0!
0+
#490000
1!
1+
#500000
0!
0+
#510000
1!
1+
#520000
0!
0+
#530000
1!
1+
#540000
0!
0+
#550000
1!
1+
#560000
0!
0+
#570000
1!
1+
#580000
0!
0+
#590000
1!
1+
#600000
0!
0+
#610000
1!
1+
#620000
0!
0+
#630000
1!
1+
#640000
0!
0+
#650000
1!
1+
#660000
0!
0+
#670000
1!
1+
#680000
0!
0+
#690000
1!
1+
#700000
0!
0+
#710000
1!
1+
#720000
0!
0+
#730000
1!
1+
#740000
0!
0+
#750000
1!
1+
#760000
0!
0+
#770000
1!
1+
#780000
0!
0+
#790000
1!
1+
#800000
0!
0+
#810000
1!
1+
#820000
0!
0+
#830000
1!
1+
#840000
0!
0+
#850000
1!
1+
#860000
0!
0+
#870000
1!
1+
#880000
0!
0+
#890000
1!
1+
#900000
0!
0+
#910000
1!
1+
#920000
0!
0+
#930000
1!
1+
#940000
0!
0+
#950000
1!
1+
#960000
0!
0+
#970000
1!
1+
#980000
0!
0+
#990000
1!
1+
#1000000
0"
0!
0-
0+
#1010000
1!
1+
1U
1.
0,
1/
#1020000
0!
0+
#1030000
1!
1+
1T
0U
0.
10
1,
0/
00
1/
11
01
#1040000
0!
0+
#1050000
1!
1+
1U
1.
0,
10
0/
11
#1060000
0!
0+
#1070000
1!
1+
1S
0T
0U
0.
00
0F
12
1,
1/
01
02
0/
11
13
03
#1080000
0!
0+
#1090000
1!
1+
1U
1.
0,
1/
#1100000
0!
0+
#1110000
1!
1+
1T
0U
0.
10
1,
0/
00
12
1/
01
02
11
13
03
#1120000
0!
0+
#1130000
1!
1+
1U
1.
0,
10
0/
12
01
13
#1140000
0!
0+
#1150000
1!
1+
1R
0S
0T
0U
0.
00
02
14
1,
1/
11
03
04
0/
01
13
15
05
#1160000
0!
0+
#1170000
1!
1+
1U
1.
0,
1/
#1180000
0!
0+
#1190000
1!
1+
1T
0U
0.
10
1,
0/
00
1/
11
01
#1200000
0!
0+
#1210000
1!
1+
1U
1.
0,
10
0/
11
#1220000
0!
0+
#1230000
1!
1+
1S
0T
0U
0.
00
12
1,
1/
01
02
14
0/
11
03
04
13
15
05
#1240000
0!
0+
#1250000
1!
1+
1U
1.
0,
1/
#1260000
0!
0+
#1270000
1!
1+
1T
0U
0.
10
1,
0/
00
12
1/
01
02
14
11
03
04
13
15
05
#1280000
0!
0+
#1290000
1!
1+
1U
1.
0,
10
0/
12
01
14
03
15
#1300000
0!
0+
#1310000
1!
1+
1Q
0R
0S
0T
0U
0.
00
02
04
16
1,
1/
11
13
05
06
0/
01
03
15
17
07
#1320000
0!
0+
#1330000
1!
1+
1U
1.
0,
1/
#1340000
0!
0+
#1350000
1!
1+
1T
0U
0.
10
1,
0/
00
1/
11
01
#1360000
0!
0+
#1370000
1!
1+
1U
1.
0,
10
0/
11
#1380000
0!
0+
#1390000
1!
1+
1S
0T
0U
0.
00
12
1,
1/
01
02
0/
11
13
03
#1400000
0!
0+
#1410000
1!
1+
1U
1.
0,
1/
#1420000
0!
0+
#1430000
1!
1+
1T
0U
0.
10
1,
0/
00
12
1/
01
02
11
13
03
#1440000
0!
0+
#1450000
1!
1+
1U
1.
0,
10
0/
12
01
13
#1460000
0!
0+
#1470000
1!
1+
1R
0S
0T
0U
0.
00
02
14
1,
1/
11
03
04
16
0/
01
13
05
06
15
17
07
#1480000
0!
0+
#1490000
1!
1+
1U
1.
0,
1/
#1500000
0!
0+
#1510000
1!
1+
1T
0U
0.
10
1,
0/
00
1/
11
01
#1520000
0!
0+
#1530000
1!
1+
1U
1.
0,
10
0/
11
#1540000
0!
0+
#1550000
1!
1+
1S
0T
0U
0.
00
12
1,
1/
01
02
14
0/
11
03
04
16
13
05
06
15
17
07
#1560000
0!
0+
#1570000
1!
1+
1U
1.
0,
1/
#1580000
0!
0+
#1590000
1!
1+
1T
0U
0.
10
1,
0/
00
12
1/
01
02
14
11
03
04
16
13
05
06
15
17
07
#1600000
0!
0+
#1610000
1!
1+
1U
1.
0,
10
0/
12
01
14
03
16
05
17
#1620000
0!
0+
#1630000
1!
1+
1P
0Q
0R
0S
0T
0U
0.
00
02
04
06
18
1,
1/
11
13
15
07
08
0/
01
03
05
17
19
09
#1640000
0!
0+
#1650000
1!
1+
1U
1.
0,
1/
#1660000
0!
0+
#1670000
1!
1+
1T
0U
0.
10
1,
0/
00
1/
11
01
#1680000
0!
0+
#1690000
1!
1+
1U
1.
0,
10
0/
11
#1700000
0!
0+
#1710000
1!
1+
1S
0T
0U
0.
00
12
1,
1/
01
02
0/
11
13
03
#1720000
0!
0+
#1730000
1!
1+
1U
1.
0,
1/
#1740000
0!
0+
#1750000
1!
1+
1T
0U
0.
10
1,
0/
00
12
1/
01
02
11
13
03
#1760000
0!
0+
#1770000
1!
1+
1U
1.
0,
10
0/
12
01
13
#1780000
0!
0+
#1790000
1!
1+
1R
0S
0T
0U
0.
00
02
14
1,
1/
11
03
04
0/
01
13
15
05
#1800000
0!
0+
#1810000
1!
1+
1U
1.
0,
1/
#1820000
0!
0+
#1830000
1!
1+
1T
0U
0.
10
1,
0/
00
1/
11
01
#1840000
0!
0+
#1850000
1!
1+
1U
1.
0,
10
0/
11
#1860000
0!
0+
#1870000
1!
1+
1S
0T
0U
0.
00
12
1,
1/
01
02
14
0/
11
03
04
13
15
05
#1880000
0!
0+
#1890000
1!
1+
1U
1.
0,
1/
#1900000
0!
0+
#1910000
1!
1+
1T
0U
0.
10
1,
0/
00
12
1/
01
02
14
11
03
04
13
15
05
#1920000
0!
0+
#1930000
1!
1+
1U
1.
0,
10
0/
12
01
14
03
15
#1940000
0!
0+
#1950000
1!
1+
1Q
0R
0S
0T
0U
0.
00
02
04
16
1,
1/
11
13
05
06
18
0/
01
03
15
07
08
17
19
09
#1960000
0!
0+
#1970000
1!
1+
1U
1.
0,
1/
#1980000
0!
0+
#1990000
1!
1+
1T
0U
0.
10
1,
0/
00
1/
11
01
#2000000
0!
0+
#2010000
1!
1+
1U
1.
0,
10
0/
11
#2020000
0!
0+
#2030000
1!
1+
1S
0T
0U
0.
00
12
1,
1/
01
02
0/
11
13
03
#2040000
0!
0+
#2050000
1!
1+
1U
1.
0,
1/
#2060000
0!
0+
#2070000
1!
1+
1T
0U
0.
10
1,
0/
00
12
1/
01
02
11
13
03
#2080000
0!
0+
#2090000
1!
1+
1U
1.
0,
10
0/
12
01
13
#2100000
0!
0+
#2110000
1!
1+
1R
0S
0T
0U
0.
00
02
14
1,
1/
11
03
04
16
0/
01
13
05
06
18
15
07
08
17
19
09
#2120000
0!
0+
#2130000
1!
1+
1U
1.
0,
1/
#2140000
0!
0+
#2150000
1!
1+
1T
0U
0.
10
1,
0/
00
1/
11
01
#2160000
0!
0+
#2170000
1!
1+
1U
1.
0,
10
0/
11
#2180000
0!
0+
#2190000
1!
1+
1S
0T
0U
0.
00
12
1,
1/
01
02
14
0/
11
03
04
16
13
05
06
18
15
07
08
17
19
09
#2200000
0!
0+
#2210000
1!
1+
1U
1.
0,
1/
#2220000
0!
0+
#2230000
1!
1+
1T
0U
0.
10
1,
0/
00
12
1/
01
02
14
11
03
04
16
13
05
06
18
15
07
08
17
19
09
#2240000
0!
0+
#2250000
1!
1+
1U
1.
0,
10
0/
12
01
14
03
16
05
18
07
19
#2260000
0!
0+
#2270000
1!
1+
1O
0P
0Q
0R
0S
0T
0U
0.
00
1F
02
04
06
08
1:
1,
1/
11
13
15
17
09
0:
0/
01
03
05
07
19
1;
0;
#2280000
0!
0+
#2290000
1!
1+
1U
1.
0,
1/
#2300000
0!
0+
#2310000
1!
1+
1T
0U
0.
10
1,
0/
00
1/
11
01
#2320000
0!
0+
#2330000
1!
1+
1U
1.
0,
10
0/
11
#2340000
0!
0+
#2350000
1!
1+
1S
0T
0U
0.
00
0F
12
1,
1/
01
02
0/
11
13
03
#2360000
0!
0+
#2370000
1!
1+
1U
1.
0,
1/
#2380000
0!
0+
#2390000
1!
1+
1T
0U
0.
10
1,
0/
00
12
1/
01
02
11
13
03
#2400000
0!
0+
#2410000
1!
1+
1U
1.
0,
10
0/
12
01
13
#2420000
0!
0+
#2430000
1!
1+
1R
0S
0T
0U
0.
00
02
14
1,
1/
11
03
04
0/
01
13
15
05
#2440000
0!
0+
#2450000
1!
1+
1U
1.
0,
1/
#2460000
0!
0+
#2470000
1!
1+
1T
0U
0.
10
1,
0/
00
1/
11
01
#2480000
0!
0+
#2490000
1!
1+
1U
1.
0,
10
0/
11
#2500000
0!
0+
#2510000
1!
1+
1S
0T
0U
0.
00
12
1,
1/
01
02
14
0/
11
03
04
13
15
05
#2520000
0!
0+
#2530000
1!
1+
1U
1.
0,
1/
#2540000
0!
0+
#2550000
1!
1+
1T
0U
0.
10
1,
0/
00
12
1/
01
02
14
11
03
04
13
15
05
#2560000
0!
0+
#2570000
1!
1+
1U
1.
0,
10
0/
12
01
14
03
15
#2580000
0!
0+
#2590000
1!
1+
1Q
0R
0S
0T
0U
0.
00
02
04
16
1,
1/
11
13
05
06
0/
01
03
15
17
07
#2600000
0!
0+
#2610000
1!
1+
1U
1.
0,
1/
#2620000
0!
0+
#2630000
1!
1+
1T
0U
0.
10
1,
0/
00
1/
11
01
#2640000
0!
0+
#2650000
1!
1+
1U
1.
0,
10
0/
11
#2660000
0!
0+
#2670000
1!
1+
1S
0T
0U
0.
00
12
1,
1/
01
02
0/
11
13
03
#2680000
0!
0+
#2690000
1!
1+
1U
1.
0,
1/
#2700000
0!
0+
#2710000
1!
1+
1T
0U
0.
10
1,
0/
00
12
1/
01
02
11
13
03
#2720000
0!
0+
#2730000
1!
1+
1U
1.
0,
10
0/
12
01
13
#2740000
0!
0+
#2750000
1!
1+
1R
0S
0T
0U
0.
00
02
14
1,
1/
11
03
04
16
0/
01
13
05
06
15
17
07
#2760000
0!
0+
#2770000
1!
1+
1U
1.
0,
1/
#2780000
0!
0+
#2790000
1!
1+
1T
0U
0.
10
1,
0/
00
1/
11
01
#2800000
0!
0+
#2810000
1!
1+
1U
1.
0,
10
0/
11
#2820000
0!
0+
#2830000
1!
1+
1S
0T
0U
0.
00
12
1,
1/
01
02
14
0/
11
03
04
16
13
05
06
15
17
07
#2840000
0!
0+
#2850000
1!
1+
1U
1.
0,
1/
#2860000
0!
0+
#2870000
1!
1+
1T
0U
0.
10
1,
0/
00
12
1/
01
02
14
11
03
04
16
13
05
06
15
17
07
#2880000
0!
0+
#2890000
1!
1+
1U
1.
0,
10
0/
12
01
14
03
16
05
17
#2900000
0!
0+
#2910000
1!
1+
1P
0Q
0R
0S
0T
0U
0.
00
02
04
06
18
1,
1/
11
13
15
07
08
1:
0/
01
03
05
17
09
0:
19
1;
0;
#2920000
0!
0+
#2930000
1!
1+
1U
1.
0,
1/
#2940000
0!
0+
#2950000
1!
1+
1T
0U
0.
10
1,
0/
00
1/
11
01
#2960000
0!
0+
#2970000
1!
1+
1U
1.
0,
10
0/
11
#2980000
0!
0+
#2990000
1!
1+
1S
0T
0U
0.
00
12
1,
1/
01
02
0/
11
13
03
#3000000
0!
0+
#3010000
1!
1+
1U
1.
0,
1/
#3020000
0!
0+
#3030000
1!
1+
1T
0U
0.
10
1,
0/
00
12
1/
01
02
11
13
03
#3040000
0!
0+
#3050000
1!
1+
1U
1.
0,
10
0/
12
01
13
#3060000
0!
0+
#3070000
1!
1+
1R
0S
0T
0U
0.
00
02
14
1,
1/
11
03
04
0/
01
13
15
05
#3080000
0!
0+
#3090000
1!
1+
1U
1.
0,
1/
#3100000
0!
0+
#3110000
1!
1+
1T
0U
0.
10
1,
0/
00
1/
11
01
#3120000
0!
0+
#3130000
1!
1+
1U
1.
0,
10
0/
11
#3140000
0!
0+
#3150000
1!
1+
1S
0T
0U
0.
00
12
1,
1/
01
02
14
0/
11
03
04
13
15
05
#3160000
0!
0+
#3170000
1!
1+
1U
1.
0,
1/
#3180000
0!
0+
#3190000
1!
1+
1T
0U
0.
10
1,
0/
00
12
1/
01
02
14
11
03
04
13
15
05
#3200000
0!
0+
#3210000
1!
1+
1U
1.
0,
10
0/
12
01
14
03
15
#3220000
0!
0+
#3230000
1!
1+
1Q
0R
0S
0T
0U
0.
00
02
04
16
1,
1/
11
13
05
06
18
0/
01
03
15
07
08
1:
17
09
0:
19
1;
0;
#3240000
0!
0+
#3250000
1!
1+
1U
1.
0,
1/
#3260000
0!
0+
#3270000
1!
1+
1T
0U
0.
10
1,
0/
00
1/
11
01
#3280000
0!
0+
#3290000
1!
1+
1U
1.
0,
10
0/
11
#3300000
0!
0+
#3310000
1!
1+
1S
0T
0U
0.
00
12
1,
1/
01
02
0/
11
13
03
#3320000
0!
0+
#3330000
1!
1+
1U
1.
0,
1/
#3340000
0!
0+
#3350000
1!
1+
1T
0U
0.
10
1,
0/
00
12
1/
01
02
11
13
03
#3360000
0!
0+
#3370000
1!
1+
1U
1.
0,
10
0/
12
01
13
#3380000
0!
0+
#3390000
1!
1+
1R
0S
0T
0U
0.
00
02
14
1,
1/
11
03
04
16
0/
01
13
05
06
18
15
07
08
1:
17
09
0:
19
1;
0;
#3400000
0!
0+
#3410000
1!
1+
1U
1.
0,
1/
#3420000
0!
0+
#3430000
1!
1+
1T
0U
0.
10
1,
0/
00
1/
11
01
#3440000
0!
0+
#3450000
1!
1+
1U
1.
0,
10
0/
11
#3460000
0!
0+
#3470000
1!
1+
1S
0T
0U
0.
00
12
1,
1/
01
02
14
0/
11
03
04
16
13
05
06
18
15
07
08
1:
17
09
0:
19
1;
0;
#3480000
0!
0+
#3490000
1!
1+
1U
1.
0,
1/
#3500000
0!
0+
#3510000
1!
1+
1T
0U
0.
10
1,
0/
00
12
1/
01
02
14
11
03
04
16
13
05
06
18
15
07
08
1:
17
09
0:
19
1;
0;
#3520000
0!
0+
#3530000
1!
1+
1U
1.
0,
10
0/
12
01
14
03
16
05
18
07
1:
09
1;
#3540000
0!
0+
#3550000
1!
1+
1N
0O
0P
0Q
0R
0S
0T
0U
0.
00
1F
02
04
06
08
0:
1<
1,
1/
11
13
15
17
19
0;
0<
0/
01
03
05
07
09
1;
1=
0=
#3560000
0!
0+
#3570000
1!
1+
1U
1.
0,
1/
#3580000
0!
0+
#3590000
1!
1+
1T
0U
0.
10
1,
0/
00
1/
11
01
#3600000
0!
0+
#3610000
1!
1+
1U
1.
0,
10
0/
11
#3620000
0!
0+
#3630000
1!
1+
1S
0T
0U
0.
00
0F
12
1,
1/
01
02
0/
11
13
03
#3640000
0!
0+
#3650000
1!
1+
1U
1.
0,
1/
#3660000
0!
0+
#3670000
1!
1+
1T
0U
0.
10
1,
0/
00
12
1/
01
02
11
13
03
#3680000
0!
0+
#3690000
1!
1+
1U
1.
0,
10
0/
12
01
13
#3700000
0!
0+
#3710000
1!
1+
1R
0S
0T
0U
0.
00
02
14
1,
1/
11
03
04
0/
01
13
15
05
#3720000
0!
0+
#3730000
1!
1+
1U
1.
0,
1/
#3740000
0!
0+
#3750000
1!
1+
1T
0U
0.
10
1,
0/
00
1/
11
01
#3760000
0!
0+
#3770000
1!
1+
1U
1.
0,
10
0/
11
#3780000
0!
0+
#3790000
1!
1+
1S
0T
0U
0.
00
12
1,
1/
01
02
14
0/
11
03
04
13
15
05
#3800000
0!
0+
#3810000
1!
1+
1U
1.
0,
1/
#3820000
0!
0+
#3830000
1!
1+
1T
0U
0.
10
1,
0/
00
12
1/
01
02
14
11
03
04
13
15
05
#3840000
0!
0+
#3850000
1!
1+
1U
1.
0,
10
0/
12
01
14
03
15
#3860000
0!
0+
#3870000
1!
1+
1Q
0R
0S
0T
0U
0.
00
02
04
16
1,
1/
11
13
05
06
0/
01
03
15
17
07
#3880000
0!
0+
#3890000
1!
1+
1U
1.
0,
1/
#3900000
0!
0+
#3910000
1!
1+
1T
0U
0.
10
1,
0/
00
1/
11
01
#3920000
0!
0+
#3930000
1!
1+
1U
1.
0,
10
0/
11
#3940000
0!
0+
#3950000
1!
1+
1S
0T
0U
0.
00
12
1,
1/
01
02
0/
11
13
03
#3960000
0!
0+
#3970000
1!
1+
1U
1.
0,
1/
#3980000
0!
0+
#3990000
1!
1+
1T
0U
0.
10
1,
0/
00
12
1/
01
02
11
13
03
#4000000
0!
0+
#4010000
1!
1+
1U
1.
0,
10
0/
12
01
13
#4020000
0!
0+
#4030000
1!
1+
1R
0S
0T
0U
0.
00
02
14
1,
1/
11
03
04
16
0/
01
13
05
06
15
17
07
#4040000
0!
0+
#4050000
1!
1+
1U
1.
0,
1/
#4060000
0!
0+
#4070000
1!
1+
1T
0U
0.
10
1,
0/
00
1/
11
01
#4080000
0!
0+
#4090000
1!
1+
1U
1.
0,
10
0/
11
#4100000
0!
0+
#4110000
1!
1+
1S
0T
0U
0.
00
12
1,
1/
01
02
14
0/
11
03
04
16
13
05
06
15
17
07
#4120000
0!
0+
#4130000
1!
1+
1U
1.
0,
1/
#4140000
0!
0+
#4150000
1!
1+
1T
0U
0.
10
1,
0/
00
12
1/
01
02
14
11
03
04
16
13
05
06
15
17
07
#4160000
0!
0+
#4170000
1!
1+
1U
1.
0,
10
0/
12
01
14
03
16
05
17
#4180000
0!
0+
#4190000
1!
1+
1P
0Q
0R
0S
0T
0U
0.
00
02
04
06
18
1,
1/
11
13
15
07
08
0/
01
03
05
17
19
09
#4200000
0!
0+
#4210000
1!
1+
1U
1.
0,
1/
#4220000
0!
0+
#4230000
1!
1+
1T
0U
0.
10
1,
0/
00
1/
11
01
#4240000
0!
0+
#4250000
1!
1+
1U
1.
0,
10
0/
11
#4260000
0!
0+
#4270000
1!
1+
1S
0T
0U
0.
00
12
1,
1/
01
02
0/
11
13
03
#4280000
0!
0+
#4290000
1!
1+
1U
1.
0,
1/
#4300000
0!
0+
#4310000
1!
1+
1T
0U
0.
10
1,
0/
00
12
1/
01
02
11
13
03
#4320000
0!
0+
#4330000
1!
1+
1U
1.
0,
10
0/
12
01
13
#4340000
0!
0+
#4350000
1!
1+
1R
0S
0T
0U
0.
00
02
14
1,
1/
11
03
04
0/
01
13
15
05
#4360000
0!
0+
#4370000
1!
1+
1U
1.
0,
1/
#4380000
0!
0+
#4390000
1!
1+
1T
0U
0.
10
1,
0/
00
1/
11
01
#4400000
0!
0+
#4410000
1!
1+
1U
1.
0,
10
0/
11
#4420000
0!
0+
#4430000
1!
1+
1S
0T
0U
0.
00
12
1,
1/
01
02
14
0/
11
03
04
13
15
05
#4440000
0!
0+
#4450000
1!
1+
1U
1.
0,
1/
#4460000
0!
0+
#4470000
1!
1+
1T
0U
0.
10
1,
0/
00
12
1/
01
02
14
11
03
04
13
15
05
#4480000
0!
0+
#4490000
1!
1+
1U
1.
0,
10
0/
12
01
14
03
15
#4500000
0!
0+
#4510000
1!
1+
1Q
0R
0S
0T
0U
0.
00
02
04
16
1,
1/
11
13
05
06
18
0/
01
03
15
07
08
17
19
09
#4520000
0!
0+
#4530000
1!
1+
1U
1.
0,
1/
#4540000
0!
0+
#4550000
1!
1+
1T
0U
0.
10
1,
0/
00
1/
11
01
#4560000
0!
0+
#4570000
1!
1+
1U
1.
0,
10
0/
11
#4580000
0!
0+
#4590000
1!
1+
1S
0T
0U
0.
00
12
1,
1/
01
02
0/
11
13
03
#4600000
0!
0+
#4610000
1!
1+
1U
1.
0,
1/
#4620000
0!
0+
#4630000
1!
1+
1T
0U
0.
10
1,
0/
00
12
1/
01
02
11
13
03
#4640000
0!
0+
#4650000
1!
1+
1U
1.
0,
10
0/
12
01
13
#4660000
0!
0+
#4670000
1!
1+
1R
0S
0T
0U
0.
00
02
14
1,
1/
11
03
04
16
0/
01
13
05
06
18
15
07
08
17
19
09
#4680000
0!
0+
#4690000
1!
1+
1U
1.
0,
1/
#4700000
0!
0+
#4710000
1!
1+
1T
0U
0.
10
1,
0/
00
1/
11
01
#4720000
0!
0+
#4730000
1!
1+
1U
1.
0,
10
0/
11
#4740000
0!
0+
#4750000
1!
1+
1S
0T
0U
0.
00
12
1,
1/
01
02
14
0/
11
03
04
16
13
05
06
18
15
07
08
17
19
09
#4760000
0!
0+
#4770000
1!
1+
1U
1.
0,
1/
#4780000
0!
0+
#4790000
1!
1+
1T
0U
0.
10
1,
0/
00
12
1/
01
02
14
11
03
04
16
13
05
06
18
15
07
08
17
19
09
#4800000
0!
0+
#4810000
1!
1+
1U
1.
0,
10
0/
12
01
14
03
16
05
18
07
19
#4820000
0!
0+
#4830000
1!
1+
1O
0P
0Q
0R
0S
0T
0U
0.
00
1F
02
04
06
08
1:
1,
1/
11
13
15
17
09
0:
1<
0/
01
03
05
07
19
0;
0<
1;
1=
0=
#4840000
0!
0+
#4850000
1!
1+
1U
1.
0,
1/
#4860000
0!
0+
#4870000
1!
1+
1T
0U
0.
10
1,
0/
00
1/
11
01
#4880000
0!
0+
#4890000
1!
1+
1U
1.
0,
10
0/
11
#4900000
0!
0+
#4910000
1!
1+
1S
0T
0U
0.
00
0F
12
1,
1/
01
02
0/
11
13
03
#4920000
0!
0+
#4930000
1!
1+
1U
1.
0,
1/
#4940000
0!
0+
#4950000
1!
1+
1T
0U
0.
10
1,
0/
00
12
1/
01
02
11
13
03
#4960000
0!
0+
#4970000
1!
1+
1U
1.
0,
10
0/
12
01
13
#4980000
0!
0+
#4990000
1!
1+
1R
0S
0T
0U
0.
00
02
14
1,
1/
11
03
04
0/
01
13
15
05
#5000000
0!
0+
#5010000
1!
1+
1U
1.
0,
1/
#5020000
0!
0+
#5030000
1!
1+
1T
0U
0.
10
1,
0/
00
1/
11
01
#5040000
0!
0+
#5050000
1!
1+
1U
1.
0,
10
0/
11
#5060000
0!
0+
#5070000
1!
1+
1S
0T
0U
0.
00
12
1,
1/
01
02
14
0/
11
03
04
13
15
05
#5080000
0!
0+
#5090000
1!
1+
1U
1.
0,
1/
#5100000
0!
0+
#5110000
1!
1+
1T
0U
0.
10
1,
0/
00
12
1/
01
02
14
11
03
04
13
15
05
#5120000
0!
0+
#5130000
1!
1+
1U
1.
0,
10
0/
12
01
14
03
15
#5140000
0!
0+
#5150000
1!
1+
1Q
0R
0S
0T
0U
0.
00
02
04
16
1,
1/
11
13
05
06
0/
01
03
15
17
07
#5160000
0!
0+
#5170000
1!
1+
1U
1.
0,
1/
#5180000
0!
0+
#5190000
1!
1+
1T
0U
0.
10
1,
0/
00
1/
11
01
#5200000
0!
0+
#5210000
1!
1+
1U
1.
0,
10
0/
11
#5220000
0!
0+
#5230000
1!
1+
1S
0T
0U
0.
00
12
1,
1/
01
02
0/
11
13
03
#5240000
0!
0+
#5250000
1!
1+
1U
1.
0,
1/
#5260000
0!
0+
#5270000
1!
1+
1T
0U
0.
10
1,
0/
00
12
1/
01
02
11
13
03
#5280000
0!
0+
#5290000
1!
1+
1U
1.
0,
10
0/
12
01
13
#5300000
0!
0+
#5310000
1!
1+
1R
0S
0T
0U
0.
00
02
14
1,
1/
11
03
04
16
0/
01
13
05
06
15
17
07
#5320000
0!
0+
#5330000
1!
1+
1U
1.
0,
1/
#5340000
0!
0+
#5350000
1!
1+
1T
0U
0.
10
1,
0/
00
1/
11
01
#5360000
0!
0+
#5370000
1!
1+
1U
1.
0,
10
0/
11
#5380000
0!
0+
#5390000
1!
1+
1S
0T
0U
0.
00
12
1,
1/
01
02
14
0/
11
03
04
16
13
05
06
15
17
07
#5400000
0!
0+
#5410000
1!
1+
1U
1.
0,
1/
#5420000
0!
0+
#5430000
1!
1+
1T
0U
0.
10
1,
0/
00
12
1/
01
02
14
11
03
04
16
13
05
06
15
17
07
#5440000
0!
0+
#5450000
1!
1+
1U
1.
0,
10
0/
12
01
14
03
16
05
17
#5460000
0!
0+
#5470000
1!
1+
1P
0Q
0R
0S
0T
0U
0.
00
02
04
06
18
1,
1/
11
13
15
07
08
1:
0/
01
03
05
17
09
0:
1<
19
0;
0<
1;
1=
0=
#5480000
0!
0+
#5490000
1!
1+
1U
1.
0,
1/
#5500000
0!
0+
#5510000
1!
1+
1T
0U
0.
10
1,
0/
00
1/
11
01
#5520000
0!
0+
#5530000
1!
1+
1U
1.
0,
10
0/
11
#5540000
0!
0+
#5550000
1!
1+
1S
0T
0U
0.
00
12
1,
1/
01
02
0/
11
13
03
#5560000
0!
0+
#5570000
1!
1+
1U
1.
0,
1/
#5580000
0!
0+
#5590000
1!
1+
1T
0U
0.
10
1,
0/
00
12
1/
01
02
11
13
03
#5600000
0!
0+
#5610000
1!
1+
1U
1.
0,
10
0/
12
01
13
#5620000
0!
0+
#5630000
1!
1+
1R
0S
0T
0U
0.
00
02
14
1,
1/
11
03
04
0/
01
13
15
05
#5640000
0!
0+
#5650000
1!
1+
1U
1.
0,
1/
#5660000
0!
0+
#5670000
1!
1+
1T
0U
0.
10
1,
0/
00
1/
11
01
#5680000
0!
0+
#5690000
1!
1+
1U
1.
0,
10
0/
11
#5700000
0!
0+
#5710000
1!
1+
1S
0T
0U
0.
00
12
1,
1/
01
02
14
0/
11
03
04
13
15
05
#5720000
0!
0+
#5730000
1!
1+
1U
1.
0,
1/
#5740000
0!
0+
#5750000
1!
1+
1T
0U
0.
10
1,
0/
00
12
1/
01
02
14
11
03
04
13
15
05
#5760000
0!
0+
#5770000
1!
1+
1U
1.
0,
10
0/
12
01
14
03
15
#5780000
0!
0+
#5790000
1!
1+
1Q
0R
0S
0T
0U
0.
00
02
04
16
1,
1/
11
13
05
06
18
0/
01
03
15
07
08
1:
17
09
0:
1<
19
0;
0<
1;
1=
0=
#5800000
0!
0+
#5810000
1!
1+
1U
1.
0,
1/
#5820000
0!
0+
#5830000
1!
1+
1T
0U
0.
10
1,
0/
00
1/
11
01
#5840000
0!
0+
#5850000
1!
1+
1U
1.
0,
10
0/
11
#5860000
0!
0+
#5870000
1!
1+
1S
0T
0U
0.
00
12
1,
1/
01
02
0/
11
13
03
#5880000
0!
0+
#5890000
1!
1+
1U
1.
0,
1/
#5900000
0!
0+
#5910000
1!
1+
1T
0U
0.
10
1,
0/
00
12
1/
01
02
11
13
03
#5920000
0!
0+
#5930000
1!
1+
1U
1.
0,
10
0/
12
01
13
#5940000
0!
0+
#5950000
1!
1+
1R
0S
0T
0U
0.
00
02
14
1,
1/
11
03
04
16
0/
01
13
05
06
18
15
07
08
1:
17
09
0:
1<
19
0;
0<
1;
1=
0=
#5960000
0!
0+
#5970000
1!
1+
1U
1.
0,
1/
#5980000
0!
0+
