alu/simulation/qsim/alu.msim.vcd
$comment
	File created using the following command:
		vcd file alu.msim.vcd -direction
$end
$date
	Wed Jun 08 11:49:29 2022
$end
$version
	ModelSim Version 2020.1
$end
$timescale
	1ps
$end

$scope module alu_vlg_vec_tst $end
$var reg 3 ! AluOp [2:0] $end
$var reg 8 " operador1 [7:0] $end
$var reg 8 # operador2 [7:0] $end
$var wire 1 $ ALURESULT [7] $end
$var wire 1 % ALURESULT [6] $end
$var wire 1 & ALURESULT [5] $end
$var wire 1 ' ALURESULT [4] $end
$var wire 1 ( ALURESULT [3] $end
$var wire 1 ) ALURESULT [2] $end
$var wire 1 * ALURESULT [1] $end
$var wire 1 + ALURESULT [0] $end
$var wire 1 , zero $end

$scope module i1 $end
$var wire 1 - gnd $end
$var wire 1 . vcc $end
$var wire 1 / unknown $end
$var tri1 1 0 devclrn $end
$var tri1 1 1 devpor $end
$var tri1 1 2 devoe $end
$var wire 1 3 zero~output_o $end
$var wire 1 4 ALURESULT[0]~output_o $end
$var wire 1 5 ALURESULT[1]~output_o $end
$var wire 1 6 ALURESULT[2]~output_o $end
$var wire 1 7 ALURESULT[3]~output_o $end
$var wire 1 8 ALURESULT[4]~output_o $end
$var wire 1 9 ALURESULT[5]~output_o $end
$var wire 1 : ALURESULT[6]~output_o $end
$var wire 1 ; ALURESULT[7]~output_o $end
$var wire 1 < operador2[7]~input_o $end
$var wire 1 = operador1[7]~input_o $end
$var wire 1 > operador2[6]~input_o $end
$var wire 1 ? operador1[6]~input_o $end
$var wire 1 @ operador2[5]~input_o $end
$var wire 1 A operador1[5]~input_o $end
$var wire 1 B operador2[4]~input_o $end
$var wire 1 C operador1[4]~input_o $end
$var wire 1 D operador2[3]~input_o $end
$var wire 1 E operador1[3]~input_o $end
$var wire 1 F operador2[2]~input_o $end
$var wire 1 G operador1[2]~input_o $end
$var wire 1 H operador2[1]~input_o $end
$var wire 1 I operador1[1]~input_o $end
$var wire 1 J operador2[0]~input_o $end
$var wire 1 K operador1[0]~input_o $end
$var wire 1 L Add0~22 $end
$var wire 1 M Add0~18 $end
$var wire 1 N Add0~30 $end
$var wire 1 O Add0~26 $end
$var wire 1 P Add0~14 $end
$var wire 1 Q Add0~10 $end
$var wire 1 R Add0~6 $end
$var wire 1 S Add0~1_sumout $end
$var wire 1 T AluOp[2]~input_o $end
$var wire 1 U AluOp[0]~input_o $end
$var wire 1 V AluOp[1]~input_o $end
$var wire 1 W Mux0~0_combout $end
$var wire 1 X Mux0~1_combout $end
$var wire 1 Y Mux0~2_combout $end
$var wire 1 Z Add0~5_sumout $end
$var wire 1 [ Mux1~0_combout $end
$var wire 1 \ Add0~9_sumout $end
$var wire 1 ] Mux2~0_combout $end
$var wire 1 ^ Add0~13_sumout $end
$var wire 1 _ Mux3~0_combout $end
$var wire 1 ` Mux0~3_combout $end
$var wire 1 a Add0~17_sumout $end
$var wire 1 b Mux6~0_combout $end
$var wire 1 c Add0~21_sumout $end
$var wire 1 d Mux7~0_combout $end
$var wire 1 e Equal0~0_combout $end
$var wire 1 f Add0~25_sumout $end
$var wire 1 g Mux4~0_combout $end
$var wire 1 h Add0~29_sumout $end
$var wire 1 i Mux5~0_combout $end
$var wire 1 j Equal0~1_combout $end
$var wire 1 k Equal0~2_combout $end
$var wire 1 l Mux7~1_combout $end
$var wire 1 m Mux6~1_combout $end
$var wire 1 n Mux5~1_combout $end
$var wire 1 o Mux4~1_combout $end
$upscope $end
$upscope $end
$enddefinitions $end
#0
$dumpvars
b0 !
b11011 "
b111011 #
0+
1*
1)
0(
1'
0&
1%
0$
0,
0-
1.
x/
10
11
12
03
04
15
16
07
18
09
1:
0;
0<
0=
0>
0?
1@
0A
1B
1C
1D
1E
0F
0G
1H
1I
1J
1K
1L
1M
0N
1O
1P
1Q
0R
0S
0T
0U
0V
1W
0X
0Y
1Z
1[
0\
0]
1^
1_
1`
1a
0b
0c
0d
0e
0f
0g
1h
0i
0j
0k
0l
1m
1n
0o
$end
#50000
b1 !
b1011 "
b1001 "
b1000 "
b11011 #
b10011 #
b10111 #
b10101 #
0H
1F
0D
0@
0K
0I
0C
1U
0`
1X
0W
0^
0M
0L
1c
0Q
1\
0O
1f
1N
0h
0N
1h
0a
0Z
0P
1^
1O
0f
1j
1e
0n
0_
0[
0m
05
0:
08
06
0O
1f
0\
1P
0^
0)
0'
0%
0*
1k
13
0P
1^
1\
1,
0\
#100000
b11 !
b10001000 "
b11001000 "
b11000000 "
b10 !
b11010000 "
b11101 #
b11111 #
1H
1D
0E
1C
1?
1=
0U
1V
0X
1S
1Z
1P
0^
1a
1_
18
1\
1'
0_
0k
03
08
0'
0,
1k
13
1,
#150000
b11110000 "
b1011111 #
b1001111 #
b1001110 #
b11110010 "
b11110011 "
b1001010 #
b11111011 "
b11 !
b1000010 #
b1000000 #
1U
0J
0H
0F
0D
0B
1>
1K
1I
1E
1A
1Q
0\
1g
1b
1d
1R
0Z
0P
1^
0h
1X
1W
1Z
0S
0Q
1\
0j
0e
1_
1]
1[
1Y
1l
1m
1o
17
15
14
1;
1:
19
18
0Z
1'
1&
1%
1$
1+
1*
1(
0k
03
0,
#200000
b111 !
b11000000 #
b101 !
b10111011 "
b10101011 "
b10000000 #
b10010000 #
b10101001 "
b10010100 #
b100 !
0I
0C
0?
1F
1B
0>
1<
0U
0V
1T
0g
0d
0b
0X
0W
1S
0R
1h
0a
0[
0:
0S
1e
1j
0%
0m
0Y
0_
0]
0l
0o
07
04
09
08
0;
05
0*
0$
0'
0&
0+
0(
1k
13
1,
#250000
b10101101 "
b10110100 #
b10111100 #
b10111101 "
b11111100 #
b11101100 #
b101 !
1U
1D
0B
1@
1>
1G
1C
1N
0h
1Z
1Q
0\
1O
0f
1f
1R
0Z
1P
0^
1S
1\
#300000
b111101 "
b11101101 #
b110101 "
b11101111 #
b1101111 #
b111 !
b1110101 "
b1110001 "
b1100111 #
b100111 #
b110 !
0U
1V
1J
1H
0D
0>
0<
0G
0E
1?
0=
0O
0N
1h
1a
1L
0c
0P
1^
0f
1M
0a
0\
1N
0h
1f
#350000
b1010001 "
b1010000 "
b100011 #
b1000000 "
b110011 #
b10110011 #
b11110011 #
b111 !
1U
0F
1B
1>
1<
0K
0C
0A
0Q
1\
0L
1c
0S
1Z
0N
1h
0Z
0M
1a
0f
0h
#400000
b11 !
b11010011 #
b1001000 "
b1 !
b1000 "
b11011011 #
b101000 "
b111000 "
b11001011 #
b0 !
1E
1C
1A
0?
1D
0B
0@
0U
0V
0T
1`
1W
1O
0R
1Z
1P
0^
1S
0e
1[
1_
1]
1m
1l
14
15
19
18
1:
1Q
0\
1%
1'
1&
1*
1+
0k
1Y
0_
08
1;
03
1R
0Z
0,
1$
0'
0]
09
0S
0&
0[
0:
0%
0Y
0;
0$
#450000
b111010 "
b10111010 "
b10111110 "
b10111111 "
b10110111 "
b10100111 "
b1 !
1U
1K
1I
1G
0E
0C
1=
1S
0P
1^
0O
1f
1h
1b
1M
0a
1d
1L
0c
0`
1X
0W
0Q
1\
0^
1N
0h
1a
1Y
1;
0R
1Z
1O
0f
1$
0S
1^
#500000
b11101011 #
b11 !
b11100111 "
b11100101 "
b11100001 "
b11100000 "
b11110000 "
b10 !
0K
0I
0G
1C
1?
0U
1V
1@
1Q
0\
0d
0b
0X
1R
0Z
1P
0^
0N
1h
0a
0L
1c
1]
1[
1:
19
1Z
1S
1\
0O
1f
0M
1a
1e
1&
1%
0l
0m
0[
0]
0Y
0;
09
0:
05
04
0P
1^
0h
0+
0*
0%
0&
0$
1k
13
0\
1,
#550000
b11101010 #
b11101000 #
b11101100 #
b1101100 #
b11010000 "
b1001100 #
b10010000 "
b10010010 "
b10010110 "
b10010111 "
b11 !
1U
1K
1I
1G
0A
0?
0J
0H
1F
0@
0<
0S
0Q
1i
1N
1b
1d
0Z
1g
1X
1W
0R
1Z
1O
0f
0j
0e
1_
1[
1Y
1o
1l
1m
1n
16
15
14
17
1;
1:
18
1S
1P
0^
1'
1%
1$
1(
1+
1*
1)
0k
03
1\
0,
#600000
b111 !
b1000100 #
b10111 "
b101 !
b1000101 #
b1000111 #
b11000111 #
b10101 "
b10100 "
b100 !
0K
0I
0=
1J
1H
0D
1<
0U
0V
1T
0i
0g
0d
0b
0X
0W
0O
1f
0P
1^
1j
1e
0o
0_
0[
0Y
0m
0l
0n
06
04
05
0;
0:
08
07
0\
0(
0'
0%
0$
0*
0+
0)
1k
13
1,
#650000
b11010111 #
b100 "
b100100 "
b11110111 #
b11111111 #
b11111110 #
b11111100 #
b1111100 #
b101 !
1U
0C
1A
0J
0H
1D
1B
1@
0<
0S
1Q
1O
0f
0a
0c
1R
0Z
1P
0^
1S
1\
#700000
b111100 #
b111000 #
b1100100 "
b111 !
b1100110 "
b1110110 "
b1010110 "
b11000 #
b10000 #
b10010 #
b10010010 #
b110 !
0U
1V
1I
1C
0A
1?
1H
0F
0D
0@
0>
1<
0S
0Q
0O
1f
0N
1h
1M
1^
0R
1Z
0^
0f
1N
0h
1S
1f
#750000
b1010010 "
b1010011 "
b10000010 #
b11000010 #
b11000110 #
b10011 "
b11001110 #
b111 !
1U
1F
1D
0B
1>
1K
0G
0?
1c
0P
1^
1O
0f
0\
1P
0^
1\
#800000
b11011 "
b11 !
b11001111 #
b1 !
b11001 "
b11101111 #
b11101101 #
b1101101 #
b11000 "
b101101 #
b101001 #
b1011000 "
b0 !
1J
0H
0F
1@
0>
0<
0U
0V
0T
0K
0I
1E
1?
1f
0M
1`
1W
0S
1Q
0\
0N
1h
0h
1R
0Z
0f
0j
0e
1n
1[
1o
1l
14
17
1:
16
1S
1j
1)
1%
1(
1+
0k
0o
0[
0n
06
0:
07
03
0,
0(
0%
0)
1Y
1;
1$
#850000
b11011000 "
b11010000 "
b101000 #
b101010 #
b1101010 #
b1101110 #
b10010000 "
b1 !
1U
0J
1H
1F
1>
0E
0?
1=
0S
0O
1f
1h
1a
0c
0`
1X
0W
0P
1^
1e
0Y
0l
04
0;
0Q
1\
0$
0+
1k
13
0R
1Z
1,
1S
#900000
b1111110 #
b11 !
b10000 "
b11000 "
b1111100 #
b1111000 #
b1011000 "
b10 !
1E
1?
0=
0U
1V
0H
0F
1B
1P
0^
0h
0a
0X
0S
1R
0Z
1O
0f
1_
1[
1:
18
1Q
0\
1S
1^
1'
1%
0[
0_
0k
03
08
0:
1Z
0%
0'
0,
1k
13
1,
#950000
b1111000 "
b1110000 #
b1010000 #
b11010000 #
b11010001 #
b1110000 "
b11010011 #
b110000 "
b11 !
1U
1J
1H
0D
0@
1<
0E
1A
0?
0Z
0O
0S
1b
1a
1d
1c
1X
1W
0^
0e
1_
1]
1[
1Y
1l
1m
15
14
1;
1:
19
18
1'
1&
1%
1$
1+
1*
0k
03
0,
