flopr_a/simulation/qsim/flopra.msim.vcd
$comment
	File created using the following command:
		vcd file flopra.msim.vcd -direction
$end
$date
	Thu Apr 07 11:42:49 2022
$end
$version
	ModelSim Version 2020.1
$end
$timescale
	1ps
$end

$scope module flopra_vlg_vec_tst $end
$var reg 1 ! clk $end
$var reg 4 " d [3:0] $end
$var reg 1 # reset $end
$var wire 1 $ q [3] $end
$var wire 1 % q [2] $end
$var wire 1 & q [1] $end
$var wire 1 ' q [0] $end

$scope module i1 $end
$var wire 1 ( gnd $end
$var wire 1 ) vcc $end
$var wire 1 * unknown $end
$var tri1 1 + devclrn $end
$var tri1 1 , devpor $end
$var tri1 1 - devoe $end
$var wire 1 . q[0]~output_o $end
$var wire 1 / q[1]~output_o $end
$var wire 1 0 q[2]~output_o $end
$var wire 1 1 q[3]~output_o $end
$var wire 1 2 clk~input_o $end
$var wire 1 3 d[0]~input_o $end
$var wire 1 4 reset~input_o $end
$var wire 1 5 q[0]~reg0_q $end
$var wire 1 6 d[1]~input_o $end
$var wire 1 7 q[1]~reg0_q $end
$var wire 1 8 d[2]~input_o $end
$var wire 1 9 q[2]~reg0_q $end
$var wire 1 : d[3]~input_o $end
$var wire 1 ; q[3]~reg0_q $end
$upscope $end
$upscope $end
$enddefinitions $end
#0
$dumpvars
0!
b1000 "
0#
0'
0&
0%
0$
0(
1)
x*
1+
1,
1-
0.
0/
00
01
02
03
04
05
06
07
08
09
1:
0;
$end
#25000
1!
12
1;
11
1$
#50000
b1100 "
0!
18
02
#75000
1!
12
19
10
1%
#100000
1#
b100 "
b110 "
b10 "
0!
14
16
08
0:
02
09
0;
01
00
0%
0$
#125000
1!
12
#150000
b11 "
b1011 "
b1111 "
0!
13
18
1:
02
#175000
1!
12
#200000
0#
b1101 "
0!
04
06
02
#225000
1!
12
1;
19
15
1.
10
11
1$
1%
1'
#250000
0!
02
#275000
1!
12
#300000
b101 "
b1 "
b11 "
0!
16
08
0:
02
#325000
1!
12
0;
09
17
1/
00
01
0$
0%
1&
#350000
b10 "
b0 "
0!
03
06
02
#375000
1!
12
07
05
0.
0/
0&
0'
#400000
b1000 "
b1100 "
b1110 "
0!
16
18
1:
02
#425000
1!
12
1;
19
17
1/
10
11
1$
1%
1&
#450000
b110 "
b10 "
0!
08
0:
02
#475000
1!
12
0;
09
00
01
0$
0%
#500000
b0 "
b1000 "
0!
06
1:
02
#525000
1!
12
1;
07
0/
11
1$
0&
#550000
b1001 "
b1101 "
b1111 "
0!
13
16
18
02
#575000
1!
12
19
17
15
1.
1/
10
1%
1&
1'
#600000
b111 "
b101 "
0!
06
0:
02
#625000
1!
12
0;
07
0/
01
0$
0&
#650000
0!
02
#675000
1!
12
#700000
0!
02
#725000
1!
12
#750000
b1 "
b11 "
0!
16
08
02
#775000
1!
12
09
17
1/
00
0%
1&
#800000
b1011 "
b1111 "
b1101 "
0!
06
18
1:
02
#825000
1!
12
1;
19
07
0/
10
11
1$
1%
0&
#850000
b1100 "
b100 "
b110 "
0!
03
16
0:
02
#875000
1!
12
0;
17
05
0.
1/
01
0$
1&
0'
#900000
b111 "
0!
13
02
#925000
1!
12
15
1.
1'
#950000
b11 "
b1011 "
0!
08
1:
02
#975000
1!
12
1;
09
00
11
1$
0%
