flopenr/simulation/qsim/flopenr.msim.vcd
$comment
	File created using the following command:
		vcd file flopenr.msim.vcd -direction
$end
$date
	Thu Apr 07 11:49:57 2022
$end
$version
	ModelSim Version 2020.1
$end
$timescale
	1ps
$end

$scope module flopenr_vlg_vec_tst $end
$var reg 1 ! clk $end
$var reg 4 " d [3:0] $end
$var reg 1 # en $end
$var reg 1 $ reset $end
$var wire 1 % q [3] $end
$var wire 1 & q [2] $end
$var wire 1 ' q [1] $end
$var wire 1 ( q [0] $end

$scope module i1 $end
$var wire 1 ) gnd $end
$var wire 1 * vcc $end
$var wire 1 + unknown $end
$var tri1 1 , devclrn $end
$var tri1 1 - devpor $end
$var tri1 1 . devoe $end
$var wire 1 / q[0]~output_o $end
$var wire 1 0 q[1]~output_o $end
$var wire 1 1 q[2]~output_o $end
$var wire 1 2 q[3]~output_o $end
$var wire 1 3 clk~input_o $end
$var wire 1 4 reset~input_o $end
$var wire 1 5 d[0]~input_o $end
$var wire 1 6 q~0_combout $end
$var wire 1 7 en~input_o $end
$var wire 1 8 q[0]~1_combout $end
$var wire 1 9 q[0]~reg0_q $end
$var wire 1 : d[1]~input_o $end
$var wire 1 ; q~2_combout $end
$var wire 1 < q[1]~reg0_q $end
$var wire 1 = d[2]~input_o $end
$var wire 1 > q~3_combout $end
$var wire 1 ? q[2]~reg0_q $end
$var wire 1 @ d[3]~input_o $end
$var wire 1 A q~4_combout $end
$var wire 1 B q[3]~reg0_q $end
$upscope $end
$upscope $end
$enddefinitions $end
#0
$dumpvars
0!
b0 "
0#
0$
0(
0'
0&
0%
0)
1*
x+
1,
1-
1.
0/
00
01
02
03
04
05
06
07
08
09
0:
0;
0<
0=
0>
0?
0@
0A
0B
$end
#25000
1!
13
#50000
b100 "
b110 "
0!
1:
1=
03
1>
1;
#75000
1!
13
#100000
1$
b10 "
0!
14
0=
03
18
0>
0;
#125000
1!
13
#150000
b1010 "
b1011 "
b1001 "
b1101 "
0!
15
0:
1=
1@
03
#175000
1!
13
#200000
0$
b101 "
b111 "
0!
04
1:
0@
03
08
1;
1>
16
#225000
1!
13
#250000
b110 "
b1110 "
0!
05
1@
03
1A
06
#275000
1!
13
#300000
1#
b1010 "
0!
17
0=
03
18
0>
#325000
1!
13
1B
1<
10
12
1%
1'
#350000
b1000 "
b1100 "
0!
0:
1=
03
1>
0;
#375000
1!
13
1?
0<
00
11
1&
0'
#400000
b1101 "
0#
b1001 "
0!
15
0=
07
03
08
0>
16
#425000
1!
13
#450000
b1 "
b0 "
b100 "
0!
05
1=
0@
03
0A
1>
06
#475000
1!
13
#500000
b1100 "
b1101 "
0!
15
1@
03
1A
16
#525000
1!
13
#550000
b1111 "
0!
1:
03
1;
#575000
1!
13
#600000
b1110 "
0!
05
03
06
#625000
1!
13
#650000
b1010 "
0!
0=
03
0>
#675000
1!
13
#700000
b1000 "
b1001 "
0!
15
0:
03
0;
16
#725000
1!
13
#750000
b1101 "
b1100 "
0!
05
1=
03
1>
06
#775000
1!
13
#800000
b100 "
b0 "
b1 "
0!
15
0=
0@
03
0A
0>
16
#825000
1!
13
#850000
b11 "
b111 "
b110 "
0!
05
1:
1=
03
1>
1;
06
#875000
1!
13
#900000
b111 "
0!
15
03
16
#925000
1!
13
#950000
b11 "
b10 "
0!
05
0=
03
0>
06
#975000
1!
13
