mux2_1/simulation/qsim/mux2_1.msim.vcd
$comment
	File created using the following command:
		vcd file mux2_1.msim.vcd -direction
$end
$date
	Tue Mar 29 11:05:16 2022
$end
$version
	ModelSim Version 2020.1
$end
$timescale
	1ps
$end

$scope module mux2_1_vlg_vec_tst $end
$var reg 4 ! d0 [3:0] $end
$var reg 4 " d1 [3:0] $end
$var reg 4 # d2 [3:0] $end
$var reg 4 $ d3 [3:0] $end
$var reg 2 % s [1:0] $end
$var wire 1 & y [3] $end
$var wire 1 ' y [2] $end
$var wire 1 ( y [1] $end
$var wire 1 ) y [0] $end

$scope module i1 $end
$var wire 1 * gnd $end
$var wire 1 + vcc $end
$var wire 1 , unknown $end
$var tri1 1 - devclrn $end
$var tri1 1 . devpor $end
$var tri1 1 / devoe $end
$var wire 1 0 y[0]~output_o $end
$var wire 1 1 y[1]~output_o $end
$var wire 1 2 y[2]~output_o $end
$var wire 1 3 y[3]~output_o $end
$var wire 1 4 d0[0]~input_o $end
$var wire 1 5 d1[0]~input_o $end
$var wire 1 6 d2[0]~input_o $end
$var wire 1 7 d3[0]~input_o $end
$var wire 1 8 s[0]~input_o $end
$var wire 1 9 s[1]~input_o $end
$var wire 1 : finalmux|y[0]~0_combout $end
$var wire 1 ; d0[1]~input_o $end
$var wire 1 < d1[1]~input_o $end
$var wire 1 = d2[1]~input_o $end
$var wire 1 > d3[1]~input_o $end
$var wire 1 ? finalmux|y[1]~1_combout $end
$var wire 1 @ d0[2]~input_o $end
$var wire 1 A d1[2]~input_o $end
$var wire 1 B d2[2]~input_o $end
$var wire 1 C d3[2]~input_o $end
$var wire 1 D finalmux|y[2]~2_combout $end
$var wire 1 E d0[3]~input_o $end
$var wire 1 F d1[3]~input_o $end
$var wire 1 G d2[3]~input_o $end
$var wire 1 H d3[3]~input_o $end
$var wire 1 I finalmux|y[3]~3_combout $end
$upscope $end
$upscope $end
$enddefinitions $end
#0
$dumpvars
b101 !
b1010 "
b1111 #
b100 $
b0 %
1)
0(
1'
0&
0*
1+
x,
1-
1.
1/
10
01
12
03
14
05
16
07
08
09
1:
0;
1<
1=
0>
0?
1@
0A
1B
1C
1D
0E
1F
1G
0H
0I
$end
#100000
b10 %
b11 %
18
19
0:
00
0)
#200000
b1 %
b0 %
08
09
1:
10
1)
#300000
b10 %
b11 %
18
19
0:
00
0)
#400000
b1 %
b0 %
08
09
1:
10
1)
#500000
b10 %
b11 %
18
19
0:
00
0)
#600000
b1 %
b0 %
08
09
1:
10
1)
#700000
b10 %
b11 %
18
19
0:
00
0)
#800000
b1 %
b0 %
08
09
1:
10
1)
#900000
b10 %
b11 %
18
19
0:
00
0)
